{
    "_id": "G2i7CUiYmyl1yjQo",
    "data": {
        "attributes": {
            "ac": {
                "value": 33
            },
            "hardness": 21,
            "hasHealth": true,
            "hp": {
                "details": "",
                "max": 84,
                "temp": 0,
                "tempmax": 0,
                "value": 84
            },
            "stealth": {
                "details": "(master)",
                "value": 32
            }
        },
        "creatureType": "",
        "details": {
            "description": "An invisible rune on the door begins emitting a very loud buzzing sound, potentially paralyzing an intruder.",
            "disable": "DC 34 Thievery (master) to disrupt the rune without triggering it or dispel magic (6th level; counteract DC 31) to magically counteract the rune",
            "isComplex": false,
            "level": 13,
            "reset": "The trap resets after 1 hour.",
            "routine": ""
        },
        "flavourText": "",
        "nethysUrl": "",
        "recallKnowledgeText": "",
        "saves": {
            "fortitude": {
                "rank": 0,
                "saveDetail": "",
                "value": 25
            },
            "reflex": {
                "rank": 0,
                "saveDetail": "",
                "value": 19
            },
            "will": {
                "rank": 0,
                "saveDetail": "",
                "value": null
            }
        },
        "schema": {
            "version": {
                "value": ""
            }
        },
        "sidebarText": "",
        "source": {
            "value": ""
        },
        "statusEffects": [],
        "traits": {
            "ci": [],
            "di": {
                "custom": "",
                "selected": {},
                "value": [
                    "critical-hits",
                    "object-immunities",
                    "precision-damage"
                ]
            },
            "dr": [],
            "dv": [],
            "traits": {
                "custom": "",
                "value": [
                    "electricity",
                    "magical",
                    "sonic"
                ]
            }
        }
    },
    "effects": [],
    "flags": {
        "pf2e": {
            "editHazard": {
                "value": true
            }
        },
        "pf2e_updatednpcsheet": {
            "npcNotes": {
                "value": ""
            }
        }
    },
    "items": [
        {
            "_id": "z346znqdZJAlbClQ",
            "data": {
                "actionCategory": {
                    "value": ""
                },
                "actionType": {
                    "value": "reaction"
                },
                "actions": {
                    "value": ""
                },
                "description": {
                    "chat": "",
                    "unidentified": "",
                    "value": "<p><strong>Trigger </strong> A creature attempts to open the door without using the key;</p>\n<p><strong> Effect </strong> The trap makes a loud buzz and deals [[/r 5d10 #electricity]] electricity damage and [[5d10 #sonic]] sonic damage to the triggering creature (DC 32 basic Reflex save; this save applies to both the electricity damage and the sonic damage). Further, the creature must attempt a DC 32 Fortitude save.</p>\n<hr />\n<p><strong>Critical Success</strong> No effect.</p>\n<p><strong>Success </strong>The target is @Compendium[pf2e.conditionitems.6uEgoh53GbXuHpTF]{Paralyzed} for 1 round.</p>\n<p><strong>Failure </strong>The target is paralyzed for [[/r 1d4 #rounds]] rounds. At the end of each of its turns, it can attempt a new DC 32 Fortitude save to reduce the remaining duration by 1 round, or end it entirely on a critical success.</p>\n<p><strong>Critical Failure</strong> The target is paralyzed for 1 minute. At the end of each of its turns, it can attempt a new Fortitude save to reduce the remaining duration by 1 round, or end it entirely on a critical success.</p>"
                },
                "rarity": {
                    "value": "common"
                },
                "requirements": {
                    "value": ""
                },
                "rules": [],
                "skill_requirement": {
                    "skill": {
                        "rank": "",
                        "skill": ""
                    }
                },
                "skill_requirements": {
                    "rank": "",
                    "skill": ""
                },
                "source": {
                    "value": ""
                },
                "traits": {
                    "custom": "",
                    "value": [
                        "electricity",
                        "evocation",
                        "primal",
                        "sonic"
                    ]
                },
                "trigger": {
                    "value": ""
                },
                "usage": {
                    "value": "held-in-one-hand"
                },
                "weapon": {
                    "value": ""
                }
            },
            "effects": [],
            "flags": {},
            "img": "systems/pf2e/icons/actions/Reaction.png",
            "name": "Jolting Buzz",
            "sort": 100000,
            "type": "action"
        }
    ],
    "name": "Buzzing Latch Rune",
    "permission": {
        "default": 0
    },
    "token": {
        "actorId": "G2i7CUiYmyl1yjQo",
        "actorLink": false,
        "bar1": {
            "attribute": "attributes.hp"
        },
        "bar2": {},
        "brightLight": 0,
        "brightSight": 0,
        "dimLight": 0,
        "dimSight": 0,
        "displayBars": 20,
        "displayName": 20,
        "disposition": -1,
        "flags": {},
        "height": 1,
        "img": "icons/svg/mystery-man.svg",
        "lightAlpha": 1,
        "lightAngle": 360,
        "lightAnimation": {
            "intensity": 5,
            "speed": 5
        },
        "lockRotation": false,
        "name": "Buzzing Latch Rune",
        "randomImg": false,
        "rotation": 0,
        "scale": 1,
        "sightAngle": 360,
        "tint": null,
        "vision": false,
        "width": 1
    },
    "type": "hazard"
}
