{
    "_id": "9evPzg9E6muFcoSk",
    "data": {
        "active": true,
        "alsoApplies": {
            "linked": [],
            "unlinked": []
        },
        "base": "Unnoticed",
        "description": {
            "chat": "",
            "unidentified": "",
            "value": "<p>If you are unnoticed by a creature, that creature has no idea you are present at all. When you’re unnoticed, you’re also <a class=\"entity-link\" draggable=\"true\" data-pack=\"pf2e.conditionitems\" data-id=\"VRSef5y1LmL2Hkjf\"> Undetected</a> by the creature. This condition matters for abilities that can be used only against targets totally unaware of your presence.</p>"
        },
        "duration": {
            "perpetual": true,
            "text": "",
            "value": 0
        },
        "group": "detection",
        "hud": {
            "img": {
                "useStatusName": true,
                "value": "system/pf2e/icons/conditions-2/unnoticed.png"
            },
            "selectable": true,
            "statusName": "unnoticed"
        },
        "modifiers": [],
        "overrides": [],
        "rarity": {
            "value": "common"
        },
        "references": {
            "children": [],
            "immunityFrom": [],
            "overriddenBy": [],
            "overrides": []
        },
        "removable": true,
        "rules": [],
        "source": {
            "value": ""
        },
        "sources": {
            "hud": false
        },
        "traits": {
            "value": []
        },
        "usage": {
            "value": "held-in-one-hand"
        },
        "value": {
            "immutable": false,
            "isValued": false,
            "modifiers": [],
            "value": 1
        }
    },
    "effects": [],
    "flags": {
        "pf2e": {
            "condition": true
        }
    },
    "img": "systems/pf2e/icons/conditions/unnoticed.png",
    "name": "Unnoticed",
    "permission": {
        "default": 0
    },
    "type": "condition"
}
