{
    "_id": "Yl48xTdMh3aeQYL2",
    "data": {
        "active": true,
        "alsoApplies": {
            "linked": [],
            "unlinked": []
        },
        "base": "Wounded",
        "description": {
            "chat": "",
            "unidentified": "",
            "value": "<p>You have been seriously injured. If you lose the <a class=\"entity-link\" draggable=\"true\" data-pack=\"pf2e.conditionitems\" data-id=\"yZRUzMqrMmfLu0V1\"> Dying</a> condition and do not already have the wounded condition, you become wounded 1. If you already have the wounded condition when you lose the dying condition, your wounded condition value increases by 1. If you gain the dying condition while wounded, increase your dying condition value by your wounded value.<br><br>The wounded condition ends if someone successfully restores Hit Points to you with <a class=\"entity-link\" draggable=\"true\" data-pack=\"pf2e.actionspf2e\" data-id=\"1kGNdIIhuglAjIp9\"> Treat Wounds</a>, or if you are restored to full Hit Points and rest for 10 minutes.</p>"
        },
        "duration": {
            "perpetual": true,
            "text": "",
            "value": 0
        },
        "group": "death",
        "hud": {
            "img": {
                "useStatusName": true,
                "value": "system/pf2e/icons/conditions-2/wounded.png"
            },
            "selectable": true,
            "statusName": "wounded"
        },
        "modifiers": [],
        "overrides": [],
        "rarity": {
            "value": "common"
        },
        "references": {
            "children": [],
            "immunityFrom": [],
            "overriddenBy": [],
            "overrides": []
        },
        "removable": true,
        "rules": [],
        "source": {
            "value": ""
        },
        "sources": {
            "hud": false
        },
        "traits": {
            "value": []
        },
        "usage": {
            "value": "held-in-one-hand"
        },
        "value": {
            "immutable": false,
            "isValued": true,
            "modifiers": [],
            "value": 1
        }
    },
    "effects": [],
    "flags": {
        "pf2e": {
            "condition": true
        }
    },
    "img": "systems/pf2e/icons/conditions/wounded.png",
    "name": "Wounded",
    "permission": {
        "default": 0
    },
    "type": "condition"
}
