{
    "_id": "pwn7lPcwqyGNZyOo",
    "content": "<p><span class=\"fontstyle0\">You witnessed and survived a major disaster in your childhood years—such as a </span><span class=\"fontstyle0\">great fire, flood, earthquake, volcano, or storm—by relying on what was at hand. </span></p>\n<p><span class=\"fontstyle0\">Add the <a class=\"entity-link\" draggable=\"true\" data-pack=\"pf2e.feats-srd\" data-id=\"ASy9AKEIRxPYUi5o\"><i class=\"fas fa-suitcase\"></i> Quick Repair</a> skill feat to your background options.</span> <br style=\"font-style: normal; font-variant: normal; font-weight: normal; letter-spacing: normal; line-height: normal; orphans: 2; text-align: -webkit-auto; text-indent: 0px; text-transform: none; white-space: normal; widows: 2; word-spacing: 0px; -webkit-text-size-adjust: auto; -webkit-text-stroke-width: 0px;\"><br></p>",
    "flags": {},
    "name": "Survived a Disaster",
    "permission": {
        "default": 0
    }
}
