{
    "_id": "tHWnYpDZlscldOX0",
    "data": {
        "description": {
            "chat": "",
            "unidentified": "",
            "value": "<div><strong>Weapons </strong>staff</div>\n<div><strong>Gear</strong> adventurer’s pack, material component pouch, writing set</div>\n<div><strong>Options</strong> <a class=\"entity-link\" draggable=\"true\" data-pack=\"pf2e.equipment-srd\" data-id=\"62nnVQvGhoVLLl2K\"><i class=\"fas fa-suitcase\"></i> Crossbow</a> with 20 <a class=\"entity-link\" draggable=\"true\" data-pack=\"pf2e.equipment-srd\" data-id=\"AITVZmakiu3RgfKo\"><i class=\"fas fa-suitcase\"></i> Bolts</a> (3 gp, 2 sp)</div>"
        },
        "equippedBulk": {
            "value": ""
        },
        "items": {
            "iap2m": {
                "id": "5Ew82vBF9YfaiY9f",
                "img": "systems/pf2e/icons/equipment/treasure/currency/silver-pieces.jpg",
                "isContainer": false,
                "items": {},
                "name": "Silver Pieces",
                "pack": "pf2e.equipment-srd",
                "quantity": 8
            },
            "lsau8": {
                "id": "QJb8S927Yj81EgHH",
                "img": "systems/pf2e/icons/equipment/adventuring-gear/writing-set.jpg",
                "isContainer": false,
                "items": {},
                "name": "Writing Set",
                "pack": "pf2e.equipment-srd",
                "quantity": 1
            },
            "q5dc6": {
                "id": "VHxXMvBeBTq2FSdf",
                "img": "systems/pf2e/icons/equipment/adventuring-gear/material-component-pouch.jpg",
                "isContainer": false,
                "items": {},
                "name": "Material Component Pouch",
                "pack": "pf2e.equipment-srd",
                "quantity": 1
            },
            "td38d": {
                "id": "FVjTuBCIefAgloUU",
                "img": "systems/pf2e/icons/equipment/staff.png",
                "isContainer": false,
                "items": {},
                "name": "Staff",
                "pack": "pf2e.equipment-srd",
                "quantity": 1
            },
            "u0kw9": {
                "id": "2req0jGaxz8hScdB",
                "img": "systems/pf2e/icons/equipment/adventuring-gear/adventurers-pack.jpg",
                "isContainer": true,
                "items": {},
                "name": "Adventurer's Pack",
                "pack": "pf2e.equipment-srd",
                "quantity": 1
            },
            "z5lhq": {
                "id": "B6B7tBWJSqOBz5zz",
                "img": "systems/pf2e/icons/equipment/treasure/currency/gold-pieces.jpg",
                "isContainer": false,
                "items": {},
                "name": "Gold Pieces",
                "pack": "pf2e.equipment-srd",
                "quantity": 11
            }
        },
        "price": {
            "value": "1 gp, 2 sp"
        },
        "rarity": {
            "value": "common"
        },
        "source": {
            "value": ""
        },
        "traits": {
            "custom": "",
            "rarity": {
                "value": "common"
            },
            "value": [
                "wizard"
            ]
        },
        "usage": {
            "value": "held-in-one-hand"
        },
        "weight": {
            "value": "-"
        }
    },
    "effects": [],
    "flags": {},
    "img": "systems/pf2e/icons/equipment/adventuring-gear/classkit-wizard.jpg",
    "name": "Class Kit (Wizard)",
    "permission": {
        "default": 0
    },
    "type": "kit"
}
