{
    "_id": "CtAg4DpSssKBIw8R",
    "data": {
        "brokenThreshold": {
            "value": 0
        },
        "bulkCapacity": {
            "value": ""
        },
        "collapsed": {
            "value": false
        },
        "containerId": {
            "value": ""
        },
        "description": {
            "chat": "",
            "unidentified": "",
            "value": "<p>A replacement filter for a <a class=\"entity-link\" draggable=\"true\" data-pack=\"pf2e.equipment-srd\" data-id=\"kDrlBnkDMVxPrahI\"><i class=\"fas fa-suitcase\"></i> Water Purifier</a>. The counteract modifier using this filter is +9.</p>"
        },
        "equipped": {
            "value": false
        },
        "equippedBulk": {
            "value": ""
        },
        "hardness": {
            "value": 0
        },
        "hp": {
            "value": 0
        },
        "identified": {
            "value": false
        },
        "invested": {
            "value": false
        },
        "level": {
            "value": "5"
        },
        "maxHp": {
            "value": 0
        },
        "negateBulk": {
            "value": "0"
        },
        "preciousMaterial": {
            "value": ""
        },
        "preciousMaterialGrade": {
            "value": ""
        },
        "price": {
            "value": "25 gp"
        },
        "quantity": {
            "value": "1"
        },
        "rarity": {
            "value": "common"
        },
        "rules": [],
        "source": {
            "value": ""
        },
        "stackGroup": {
            "value": ""
        },
        "traits": {
            "rarity": {
                "value": "uncommon"
            },
            "usage": {
                "value": "bonded"
            },
            "value": []
        },
        "usage": {
            "value": "held-in-one-hand"
        },
        "weight": {
            "value": "-"
        }
    },
    "effects": [],
    "flags": {
        "core": {
            "sourceId": "Item.sAOr4OgApAIBj29y"
        }
    },
    "img": "systems/pf2e/icons/equipment/adventuring-gear/replacement-filter.jpg",
    "name": "Replacement Filter (Level 5)",
    "permission": {
        "default": 0
    },
    "type": "equipment"
}
