{
    "_id": "tlX5PLwar8b1tmiQ",
    "description": "Table of 1st-Level Consumables",
    "displayRoll": true,
    "flags": {
        "core": {
            "sourceId": "RollTable.15LFyoemOQAGrGce"
        }
    },
    "formula": "1d246",
    "img": "icons/svg/d20-grey.svg",
    "name": "1st-Level Consumables",
    "permission": {
        "default": 0
    },
    "replacement": true,
    "results": [
        {
            "_id": "lFxTQnP90fZKf3Pi",
            "collection": "pf2e.equipment-srd",
            "drawn": false,
            "flags": {},
            "img": "systems/pf2e/icons/equipment/consumables/ammunition/shining-ammunition.jpg",
            "range": [
                1,
                6
            ],
            "resultId": "NI7twU2G6UCDmvCO",
            "text": "Shining Ammunition",
            "type": 2,
            "weight": 6
        },
        {
            "_id": "AD6iXxXwvR54mtKk",
            "collection": "pf2e.equipment-srd",
            "drawn": false,
            "flags": {},
            "img": "systems/pf2e/icons/equipment/alchemical-items/alchemical-bombs/acid-flask.jpg",
            "range": [
                7,
                12
            ],
            "resultId": "M1k5QQc1qQLxzyCK",
            "text": "Acid Flask (Lesser)",
            "type": 2,
            "weight": 6
        },
        {
            "_id": "0weTT9FVhOQNuwx2",
            "collection": "pf2e.equipment-srd",
            "drawn": false,
            "flags": {},
            "img": "systems/pf2e/icons/equipment/alchemical-items/alchemical-bombs/alchemists-fire.jpg",
            "range": [
                13,
                18
            ],
            "resultId": "yd3kEK21YknZLlcT",
            "text": "Alchemist's Fire (Lesser)",
            "type": 2,
            "weight": 6
        },
        {
            "_id": "8eRjamdCmcRyNeJv",
            "collection": "pf2e.equipment-srd",
            "drawn": false,
            "flags": {},
            "img": "systems/pf2e/icons/equipment/alchemical-items/alchemical-bombs/bottled-lightning.jpg",
            "range": [
                19,
                24
            ],
            "resultId": "AFR01HVd7DcZvkpP",
            "text": "Bottled Lightning (Lesser)",
            "type": 2,
            "weight": 6
        },
        {
            "_id": "WzNJYRFAAMGTlrBY",
            "collection": "pf2e.equipment-srd",
            "drawn": false,
            "flags": {},
            "img": "systems/pf2e/icons/equipment/alchemical-items/alchemical-bombs/frost-vial.jpg",
            "range": [
                25,
                30
            ],
            "resultId": "EpxmUtLpCkE8R6KJ",
            "text": "Frost Vial (Lesser)",
            "type": 2,
            "weight": 6
        },
        {
            "_id": "c0MFs4hFHxFBYtHL",
            "collection": "pf2e.equipment-srd",
            "drawn": false,
            "flags": {},
            "img": "systems/pf2e/icons/equipment/alchemical-items/alchemical-bombs/tanglefoot-bag.jpg",
            "range": [
                31,
                36
            ],
            "resultId": "T6Appwwl6nUl56Xj",
            "text": "Tanglefoot Bag (Lesser)",
            "type": 2,
            "weight": 6
        },
        {
            "_id": "0X1L0UZKv5ITSCZu",
            "collection": "pf2e.equipment-srd",
            "drawn": false,
            "flags": {},
            "img": "systems/pf2e/icons/equipment/alchemical-items/alchemical-bombs/thunderstone.jpg",
            "range": [
                37,
                42
            ],
            "resultId": "Xnqglykl3Cif8rN9",
            "text": "Thunderstone (Lesser)",
            "type": 2,
            "weight": 6
        },
        {
            "_id": "XQI7NEK3aSdddawh",
            "collection": "pf2e.equipment-srd",
            "drawn": false,
            "flags": {},
            "img": "systems/pf2e/icons/equipment/consumables/other-consumables/feather-token.jpg",
            "range": [
                43,
                48
            ],
            "resultId": "3cWko20JPnjeoofV",
            "text": "Feather Token (Ladder)",
            "type": 2,
            "weight": 6
        },
        {
            "_id": "YcuMCc1qjevdHTDK",
            "collection": "pf2e.equipment-srd",
            "drawn": false,
            "flags": {},
            "img": "systems/pf2e/icons/equipment/consumables/other-consumables/holy-water.jpg",
            "range": [
                49,
                54
            ],
            "resultId": "efFe4EK7ThUrH446",
            "text": "Holy Water",
            "type": 2,
            "weight": 6
        },
        {
            "_id": "n5lpwKzBBQEfk9m9",
            "collection": "pf2e.equipment-srd",
            "drawn": false,
            "flags": {},
            "img": "systems/pf2e/icons/equipment/consumables/other-consumables/runestone.jpg",
            "range": [
                55,
                60
            ],
            "resultId": "ev3F9qlMNlNdCOAI",
            "text": "Runestone",
            "type": 2,
            "weight": 6
        },
        {
            "_id": "9iyp0yLeptIjYutK",
            "collection": "pf2e.equipment-srd",
            "drawn": false,
            "flags": {},
            "img": "systems/pf2e/icons/equipment/consumables/other-consumables/unholy-water.jpg",
            "range": [
                61,
                66
            ],
            "resultId": "uplCUQwMwBOBHz0E",
            "text": "Unholy Water",
            "type": 2,
            "weight": 6
        },
        {
            "_id": "RJWPeE88zaQcc3de",
            "collection": "pf2e.equipment-srd",
            "drawn": false,
            "flags": {},
            "img": "systems/pf2e/icons/equipment/alchemical-items/alchemical-elixirs/antidote.jpg",
            "range": [
                67,
                72
            ],
            "resultId": "ktjFOp3U0wQD9t0Z",
            "text": "Antidote (Lesser)",
            "type": 2,
            "weight": 6
        },
        {
            "_id": "wtRL7scHYl6u1saC",
            "collection": "pf2e.equipment-srd",
            "drawn": false,
            "flags": {},
            "img": "systems/pf2e/icons/equipment/alchemical-items/alchemical-elixirs/antiplague.jpg",
            "range": [
                73,
                78
            ],
            "resultId": "UqinuuCWePTYGhVO",
            "text": "Antiplague (Lesser)",
            "type": 2,
            "weight": 6
        },
        {
            "_id": "coPd26lVI1zJOPOj",
            "collection": "pf2e.equipment-srd",
            "drawn": false,
            "flags": {},
            "img": "systems/pf2e/icons/equipment/alchemical-items/alchemical-elixirs/bestial-mutagen.jpg",
            "range": [
                79,
                84
            ],
            "resultId": "IQK9N2mEOyAj3iWU",
            "text": "Bestial Mutagen (Lesser)",
            "type": 2,
            "weight": 6
        },
        {
            "_id": "jfeOSgBmONVCWF8A",
            "collection": "pf2e.equipment-srd",
            "drawn": false,
            "flags": {},
            "img": "systems/pf2e/icons/equipment/alchemical-items/alchemical-elixirs/cheetahs-elixir.jpg",
            "range": [
                85,
                90
            ],
            "resultId": "tyt6rFtv32MZ4DT9",
            "text": "Cheetah's Elixir (Lesser)",
            "type": 2,
            "weight": 6
        },
        {
            "_id": "pYL9ovjsb7IDe3hW",
            "collection": "pf2e.equipment-srd",
            "drawn": false,
            "flags": {},
            "img": "systems/pf2e/icons/equipment/alchemical-items/alchemical-elixirs/cognitive-mutagen.jpg",
            "range": [
                91,
                96
            ],
            "resultId": "wbr6rkyaVYnDhdgV",
            "text": "Cognitive Mutagen (Lesser)",
            "type": 2,
            "weight": 6
        },
        {
            "_id": "dv7cQYYsQTYQv1cf",
            "collection": "pf2e.equipment-srd",
            "drawn": false,
            "flags": {},
            "img": "systems/pf2e/icons/equipment/alchemical-items/alchemical-elixirs/eagle-eyes-elixir.jpg",
            "range": [
                97,
                102
            ],
            "resultId": "7Y2yOr4ltpP2tyuL",
            "text": "Eagle Eye Elixir (Lesser)",
            "type": 2,
            "weight": 6
        },
        {
            "_id": "kNTMBGvPI42pyYy9",
            "collection": "pf2e.equipment-srd",
            "drawn": false,
            "flags": {},
            "img": "systems/pf2e/icons/equipment/alchemical-items/alchemical-elixirs/elixir-of-life.jpg",
            "range": [
                103,
                108
            ],
            "resultId": "hDLbR56Id2OtU318",
            "text": "Elixir of Life (Minor)",
            "type": 2,
            "weight": 6
        },
        {
            "_id": "txFCP4aC30pIREO0",
            "collection": "pf2e.equipment-srd",
            "drawn": false,
            "flags": {},
            "img": "systems/pf2e/icons/equipment/alchemical-items/alchemical-elixirs/juggernaut-mutagen.jpg",
            "range": [
                109,
                114
            ],
            "resultId": "xE0EdDrf734l2fQH",
            "text": "Juggernaut Mutagen (Lesser)",
            "type": 2,
            "weight": 6
        },
        {
            "_id": "njQ3sTPRy4k45itb",
            "collection": "pf2e.equipment-srd",
            "drawn": false,
            "flags": {},
            "img": "systems/pf2e/icons/equipment/alchemical-items/alchemical-elixirs/leapers-elixir.jpg",
            "range": [
                115,
                120
            ],
            "resultId": "uG3xtNrs26scOVgW",
            "text": "Leaper's Elixir (Lesser)",
            "type": 2,
            "weight": 6
        },
        {
            "_id": "ZW1Bp0sab4nnhBPs",
            "collection": "pf2e.equipment-srd",
            "drawn": false,
            "flags": {},
            "img": "systems/pf2e/icons/equipment/alchemical-items/alchemical-elixirs/quicksilver-mutagen.jpg",
            "range": [
                121,
                126
            ],
            "resultId": "5MKBwpE401uz4kNN",
            "text": "Quicksilver Mutagen (Lesser)",
            "type": 2,
            "weight": 6
        },
        {
            "_id": "1qGFeFYGddlH1qCc",
            "collection": "pf2e.equipment-srd",
            "drawn": false,
            "flags": {},
            "img": "systems/pf2e/icons/equipment/alchemical-items/alchemical-elixirs/serene-mutagen.jpg",
            "range": [
                127,
                132
            ],
            "resultId": "bOPQDM54W8ZDoULY",
            "text": "Serene Mutagen (Lesser)",
            "type": 2,
            "weight": 6
        },
        {
            "_id": "NBHo9j3c17FRsEwU",
            "collection": "pf2e.equipment-srd",
            "drawn": false,
            "flags": {},
            "img": "systems/pf2e/icons/equipment/alchemical-items/alchemical-elixirs/silvertongue-mutagen.jpg",
            "range": [
                133,
                138
            ],
            "resultId": "YwRAHWW8yUI07sy9",
            "text": "Silvertongue Mutagen (Lesser)",
            "type": 2,
            "weight": 6
        },
        {
            "_id": "GZt3ZWcLrFy1VzBf",
            "collection": "pf2e.equipment-srd",
            "drawn": false,
            "flags": {},
            "img": "systems/pf2e/icons/equipment/consumables/oils/nectar-of-purification.jpg",
            "range": [
                139,
                144
            ],
            "resultId": "ukTlC4G83aVQEg7u",
            "text": "Nectar of Purification",
            "type": 2,
            "weight": 6
        },
        {
            "_id": "Ifik32NPS6K2BOJx",
            "collection": "pf2e.equipment-srd",
            "drawn": false,
            "flags": {},
            "img": "systems/pf2e/icons/equipment/alchemical-items/alchemical-poisons/arsenic.jpg",
            "range": [
                145,
                150
            ],
            "resultId": "OIirLySQDLZgT15S",
            "text": "Arsenic",
            "type": 2,
            "weight": 6
        },
        {
            "_id": "7mJP8yFjJTQwqR1N",
            "collection": "pf2e.equipment-srd",
            "drawn": false,
            "flags": {},
            "img": "systems/pf2e/icons/equipment/alchemical-items/alchemical-poisons/giant-centipede-venom.jpg",
            "range": [
                151,
                156
            ],
            "resultId": "txmX5ghhPS72GKXy",
            "text": "Giant Centipede Venom",
            "type": 2,
            "weight": 6
        },
        {
            "_id": "9s865cUJGztYpvFi",
            "collection": "pf2e.equipment-srd",
            "drawn": false,
            "flags": {},
            "img": "systems/pf2e/icons/equipment/consumables/potions/healing-potion.jpg",
            "range": [
                157,
                162
            ],
            "resultId": "2RuepCemJhrpKKao",
            "text": "Healing Potion (Minor)",
            "type": 2,
            "weight": 6
        },
        {
            "_id": "idP8IDa44rmz8QvR",
            "collection": "pf2e.equipment-srd",
            "drawn": false,
            "flags": {},
            "img": "systems/pf2e/icons/equipment/consumables/other-consumables/spell-scroll.jpg",
            "range": [
                163,
                168
            ],
            "resultId": "RjuupS9xyXDLgyIr",
            "text": "Scroll of 1st-level Spell",
            "type": 2,
            "weight": 6
        },
        {
            "_id": "nZmNbX68qqLlcw3X",
            "collection": "pf2e.equipment-srd",
            "drawn": false,
            "flags": {},
            "img": "systems/pf2e/icons/equipment/snares/alarm-snare.jpg",
            "range": [
                169,
                174
            ],
            "resultId": "AFX1V0Go9DqPWBlN",
            "text": "Alarm Snare",
            "type": 2,
            "weight": 6
        },
        {
            "_id": "8XL4Ufkz4GGDt9Rh",
            "collection": "pf2e.equipment-srd",
            "drawn": false,
            "flags": {},
            "img": "systems/pf2e/icons/equipment/snares/caltrop-snare.jpg",
            "range": [
                175,
                180
            ],
            "resultId": "kF761P3ibBIFmLm9",
            "text": "Caltrop Snare",
            "type": 2,
            "weight": 6
        },
        {
            "_id": "oh2hVlytK77J2xeW",
            "collection": "pf2e.equipment-srd",
            "drawn": false,
            "flags": {},
            "img": "systems/pf2e/icons/equipment/snares/hampering-snare.jpg",
            "range": [
                181,
                186
            ],
            "resultId": "Km4lSOsyrip5q6iD",
            "text": "Hampering Snare",
            "type": 2,
            "weight": 6
        },
        {
            "_id": "oXtRBxXlnW1s0YqF",
            "collection": "pf2e.equipment-srd",
            "drawn": false,
            "flags": {},
            "img": "systems/pf2e/icons/equipment/snares/marking-snare.jpg",
            "range": [
                187,
                192
            ],
            "resultId": "oplQpQSTyTvHDDtq",
            "text": "Marking Snare",
            "type": 2,
            "weight": 6
        },
        {
            "_id": "nwgLDCGwlXtJGriZ",
            "collection": "pf2e.equipment-srd",
            "drawn": false,
            "flags": {},
            "img": "systems/pf2e/icons/equipment/snares/signaling-snare.jpg",
            "range": [
                193,
                198
            ],
            "resultId": "XcD8p1o71tPohZWT",
            "text": "Signaling Snare",
            "type": 2,
            "weight": 6
        },
        {
            "_id": "pkTwghUiJVzAprcY",
            "collection": "pf2e.equipment-srd",
            "drawn": false,
            "flags": {},
            "img": "systems/pf2e/icons/equipment/snares/spike-snare.jpg",
            "range": [
                199,
                204
            ],
            "resultId": "3V2U720YhW2nyGVx",
            "text": "Spike Snare",
            "type": 2,
            "weight": 6
        },
        {
            "_id": "jj3unclcScG80OUl",
            "collection": "pf2e.equipment-srd",
            "drawn": false,
            "flags": {},
            "img": "systems/pf2e/icons/equipment/consumables/talismans/owlbear-claw.jpg",
            "range": [
                205,
                210
            ],
            "resultId": "qoM7Va5GqcLLBzgu",
            "text": "Owlbear Claw",
            "type": 2,
            "weight": 6
        },
        {
            "_id": "12NXIimK87DZ2E8E",
            "collection": "pf2e.equipment-srd",
            "drawn": false,
            "flags": {},
            "img": "systems/pf2e/icons/equipment/consumables/talismans/potency-crystal.jpg",
            "range": [
                211,
                216
            ],
            "resultId": "ZCsksGf6NPUKz2Uw",
            "text": "Potency Crystal",
            "type": 2,
            "weight": 6
        },
        {
            "_id": "li7ogybaJnC30VWT",
            "collection": "pf2e.equipment-srd",
            "drawn": false,
            "flags": {},
            "img": "systems/pf2e/icons/equipment/consumables/talismans/wolf-fang.jpg",
            "range": [
                217,
                222
            ],
            "resultId": "clyXfh0aVXgij2Hb",
            "text": "Wolf Fang",
            "type": 2,
            "weight": 6
        },
        {
            "_id": "HjbnZiEaEHVEHgAP",
            "collection": "pf2e.equipment-srd",
            "drawn": false,
            "flags": {},
            "img": "systems/pf2e/icons/equipment/alchemical-items/alchemical-tools/smokestick.jpg",
            "range": [
                223,
                228
            ],
            "resultId": "MoBlVd36uD9xVvZC",
            "text": "Smokestick (Lesser)",
            "type": 2,
            "weight": 6
        },
        {
            "_id": "9LxDP58SIODcKXii",
            "collection": "pf2e.equipment-srd",
            "drawn": false,
            "flags": {},
            "img": "systems/pf2e/icons/equipment/alchemical-items/alchemical-tools/snake-oil.jpg",
            "range": [
                229,
                234
            ],
            "resultId": "xBZCVHAa1SnR8Xul",
            "text": "Snake Oil",
            "type": 2,
            "weight": 6
        },
        {
            "_id": "9eNOLyVOaRPp9dWo",
            "collection": "pf2e.equipment-srd",
            "drawn": false,
            "flags": {},
            "img": "systems/pf2e/icons/equipment/alchemical-items/alchemical-tools/sunrod.jpg",
            "range": [
                235,
                240
            ],
            "resultId": "y4WJY8rCbY6d1MET",
            "text": "Sunrod",
            "type": 2,
            "weight": 6
        },
        {
            "_id": "10ttGy8VFFayBaf3",
            "collection": "pf2e.equipment-srd",
            "drawn": false,
            "flags": {},
            "img": "systems/pf2e/icons/equipment/alchemical-items/alchemical-tools/tindertwig.jpg",
            "range": [
                241,
                246
            ],
            "resultId": "ylUdMTsfOQGJ3MN3",
            "text": "Tindertwig",
            "type": 2,
            "weight": 6
        }
    ]
}
