{
    "_id": "A68C9O0vtWbFXbfS",
    "description": "Table of 6th-Level Consumables Items",
    "displayRoll": true,
    "flags": {
        "core": {
            "sourceId": "RollTable.CjOmriwQynGxQUuH"
        }
    },
    "formula": "1d75",
    "img": "icons/svg/d20-grey.svg",
    "name": "6th-Level Consumables Items",
    "permission": {
        "default": 0
    },
    "replacement": true,
    "results": [
        {
            "_id": "mYq4p5qykRLe1Ok4",
            "collection": "pf2e.equipment-srd",
            "drawn": false,
            "flags": {},
            "img": "systems/pf2e/icons/equipment/consumables/other-consumables/dust-of-apperance.jpg",
            "range": [
                1,
                6
            ],
            "resultId": "8iGmSwTTUdj6gqN5",
            "text": "Dust of Appearance",
            "type": 2,
            "weight": 6
        },
        {
            "_id": "QN2b9QvvhEhXYHss",
            "collection": "pf2e.equipment-srd",
            "drawn": false,
            "flags": {},
            "img": "systems/pf2e/icons/equipment/consumables/other-consumables/feather-token.jpg",
            "range": [
                7,
                12
            ],
            "resultId": "4owFeOy4zxy8rv7W",
            "text": "Feather Token (Tree)",
            "type": 2,
            "weight": 6
        },
        {
            "_id": "k455WZW8SCQLXbsv",
            "collection": "pf2e.equipment-srd",
            "drawn": false,
            "flags": {},
            "img": "systems/pf2e/icons/equipment/alchemical-items/alchemical-elixirs/antidote.jpg",
            "range": [
                13,
                18
            ],
            "resultId": "AJ1dC7EtTIfBey0M",
            "text": "Antidote (Moderate)",
            "type": 2,
            "weight": 6
        },
        {
            "_id": "aPbhuQl16Dn83HR8",
            "collection": "pf2e.equipment-srd",
            "drawn": false,
            "flags": {},
            "img": "systems/pf2e/icons/equipment/alchemical-items/alchemical-elixirs/antiplague.jpg",
            "range": [
                19,
                24
            ],
            "resultId": "biRbqKo2C97XLfQ0",
            "text": "Antiplague (Moderate)",
            "type": 2,
            "weight": 6
        },
        {
            "_id": "3EqXFbXhBaS3HemC",
            "collection": "pf2e.equipment-srd",
            "drawn": false,
            "flags": {},
            "img": "systems/pf2e/icons/equipment/alchemical-items/alchemical-elixirs/mistform-elixir.jpg",
            "range": [
                25,
                30
            ],
            "resultId": "Ax8XcBd0rRd1Z7hN",
            "text": "Mistform Elixir (Moderate)",
            "type": 2,
            "weight": 6
        },
        {
            "_id": "zz0eL7k3QNTKNXc3",
            "collection": "pf2e.equipment-srd",
            "drawn": false,
            "flags": {},
            "img": "systems/pf2e/icons/equipment/consumables/oils/oil-of-weightlessness.jpg",
            "range": [
                31,
                36
            ],
            "resultId": "Ru4xaA4kjdZ4IFS5",
            "text": "Oil of Weightlessness (Greater)",
            "type": 2,
            "weight": 6
        },
        {
            "_id": "lLzSpPUauPOj4sfl",
            "collection": "pf2e.equipment-srd",
            "drawn": false,
            "flags": {},
            "img": "systems/pf2e/icons/equipment/consumables/oils/salve-of-antiparalysis.jpg",
            "range": [
                37,
                42
            ],
            "resultId": "ZEKmCg8K2hUHbmnT",
            "text": "Salve of Antiparalysis",
            "type": 2,
            "weight": 6
        },
        {
            "_id": "HpyqvpBDM6D2jUC6",
            "collection": "pf2e.equipment-srd",
            "drawn": false,
            "flags": {},
            "img": "systems/pf2e/icons/equipment/alchemical-items/alchemical-poisons/giant-scorpion-venom.jpg",
            "range": [
                43,
                48
            ],
            "resultId": "QGXNqpP5KvSldoZz",
            "text": "Giant Scorpion Venom",
            "type": 2,
            "weight": 6
        },
        {
            "_id": "bqsJMu7IB225fTYz",
            "collection": "pf2e.equipment-srd",
            "drawn": false,
            "flags": {},
            "img": "systems/pf2e/icons/equipment/consumables/potions/healing-potion.jpg",
            "range": [
                49,
                54
            ],
            "resultId": "G7haQ5gDt30ftJLC",
            "text": "Healing Potion (Moderate)",
            "type": 2,
            "weight": 6
        },
        {
            "_id": "xkxbqKf3zQN0HjG2",
            "collection": "pf2e.equipment-srd",
            "drawn": false,
            "flags": {},
            "img": "systems/pf2e/icons/equipment/consumables/potions/potion-of-resistance.jpg",
            "range": [
                55,
                60
            ],
            "resultId": "V2TUEoiDwJ125qzN",
            "text": "Potion of Resistance (Lesser)",
            "type": 2,
            "weight": 6
        },
        {
            "_id": "kQTbzpAKyDIdb9PY",
            "collection": "pf2e.equipment-srd",
            "drawn": false,
            "flags": {},
            "img": "systems/pf2e/icons/equipment/consumables/potions/potion-of-swimming.jpg",
            "range": [
                61,
                66
            ],
            "resultId": "Eb4dEuV22QVlMumS",
            "text": "Potion of Swimming (Moderate)",
            "type": 2,
            "weight": 6
        },
        {
            "_id": "11E6i8082Hr9VbAI",
            "collection": "pf2e.equipment-srd",
            "drawn": false,
            "flags": {},
            "img": "systems/pf2e/icons/equipment/truth-potion.jpg",
            "range": [
                67,
                69
            ],
            "resultId": "HAEz4sSa6OH6C7Cs",
            "text": "Truth Potion",
            "type": 2,
            "weight": 3
        },
        {
            "_id": "61ajGdu6KUgCbRhV",
            "collection": "pf2e.equipment-srd",
            "drawn": false,
            "flags": {},
            "img": "systems/pf2e/icons/equipment/consumables/talismans/iron-cube.jpg",
            "range": [
                70,
                75
            ],
            "resultId": "StsE5POM7OSE36Ia",
            "text": "Iron Cube",
            "type": 2,
            "weight": 6
        }
    ]
}
