{
    "_id": "M76ycLAqHoAgbcej",
    "data": {
        "actionCategory": {
            "value": ""
        },
        "actionType": {
            "label": "Action Type",
            "type": "String",
            "value": "action"
        },
        "actions": {
            "label": "Number of Actions",
            "type": "String",
            "value": "1"
        },
        "description": {
            "chat": "",
            "label": "Description",
            "type": "String",
            "unidentified": "",
            "value": "<p><strong>Requirements</strong> You are in a square that contains a narrow surface, uneven ground, or another similar feature</p>\n<hr>\n<p>You move across a narrow surface or uneven ground, attempting an Acrobatics check against its Balance DC. You are flat-footed while on a narrow surface or uneven ground.</p>\n<hr>\n<p><strong>Critical Success</strong> You move up to your Speed.</p>\n<p><strong>Success</strong> You move up to your Speed, treating it as difficult terrain (every 5 feet costs 10 feet of movement).</p>\n<p><strong>Failure</strong> You must remain stationary to keep your balance (wasting the action) or you fall. If you fall, your turn ends.</p>\n<p><strong>Critical Failure</strong> You fall and your turn ends.</p>\n<p>&nbsp;</p>\n<h2 class=\"title\">Sample Balance Tasks</h2>\n<ul>\n<li><strong>Untrained</strong> tangled roots, uneven cobblestones</li>\n<li><strong>Trained</strong> wooden beam</li>\n<li><strong>Expert</strong> deep, loose gravel</li>\n<li><strong>Master</strong> tightrope, smooth sheet of ice</li>\n<li><strong>Legendary</strong> razor's edge, chunks of floor falling in midair&nbsp;</li>\n</ul>"
        },
        "rarity": {
            "value": "common"
        },
        "requirements": {
            "label": "Requirements",
            "type": "String",
            "value": ""
        },
        "rules": [],
        "skill_requirement": {
            "label": "Skill Req.",
            "skill": {
                "rank": "0",
                "skill": "acrobatics",
                "type": "Number"
            },
            "type": "String"
        },
        "skill_requirements": {
            "rank": "",
            "skill": ""
        },
        "source": {
            "label": "Source",
            "type": "String",
            "value": ""
        },
        "traits": {
            "custom": "",
            "label": "Traits",
            "type": "String",
            "value": [
                "move"
            ]
        },
        "trigger": {
            "label": "Trigger",
            "type": "String",
            "value": ""
        },
        "usage": {
            "value": "held-in-one-hand"
        },
        "weapon": {
            "label": "Associated Weapon",
            "type": "String",
            "value": ""
        }
    },
    "effects": [],
    "flags": {},
    "img": "systems/pf2e/icons/actions/OneAction.png",
    "name": "Balance",
    "permission": {
        "default": 0
    },
    "type": "action"
}
