{
    "_id": "nbfNETdpee8CVM17",
    "data": {
        "actionCategory": {
            "value": ""
        },
        "actionType": {
            "value": "action"
        },
        "actions": {
            "value": "1"
        },
        "description": {
            "chat": "",
            "unidentified": "",
            "value": "<p>Make two unarmed Strikes. If both hit the same creature, combine their damage for the purpose of resistances and weaknesses. Apply your multiple attack penalty to the Strikes normally. As it has the flourish trait, you can use Flurry of Blows only once per turn.</p>"
        },
        "rarity": {
            "value": "common"
        },
        "requirements": {
            "value": ""
        },
        "rules": [],
        "skill_requirement": {
            "skill": {
                "rank": "",
                "skill": ""
            }
        },
        "skill_requirements": {
            "rank": "",
            "skill": ""
        },
        "source": {
            "value": ""
        },
        "traits": {
            "custom": "",
            "value": [
                "monk",
                "flourish"
            ]
        },
        "trigger": {
            "value": ""
        },
        "usage": {
            "value": "held-in-one-hand"
        },
        "weapon": {
            "value": ""
        }
    },
    "effects": [],
    "flags": {},
    "img": "systems/pf2e/icons/actions/OneAction.png",
    "name": "Flurry of Blows",
    "permission": {
        "default": 0
    },
    "type": "action"
}
