{
    "_id": "PMbdMWc2QroouFGD",
    "data": {
        "actionCategory": {
            "value": ""
        },
        "actionType": {
            "label": "Action Type",
            "type": "String",
            "value": "action"
        },
        "actions": {
            "label": "Number of Actions",
            "type": "String",
            "value": "1"
        },
        "description": {
            "chat": "",
            "label": "Description",
            "type": "String",
            "unidentified": "",
            "value": "<p><strong>Requirements</strong> You have at least one free hand. Your target cannot be more than one size larger than you</p>\n<hr>\n<p>You attempt to grab an opponent with your free hand. Attempt an Athletics check against their Fortitude DC. You can also Grapple to keep your hold on a creature you already grabbed.</p>\n<hr>\n<p><strong>Critical Success</strong> Your opponent is <a class=\"entity-link\" draggable=\"true\" data-pack=\"pf2e.conditionitems\" data-id=\"VcDeM8A5oI6VqhbM\"> Restrained</a> until the end of your next turn unless you move or your opponent <a class=\"entity-link\" draggable=\"true\" data-pack=\"pf2e.actionspf2e\" data-id=\"SkZAQRkLLkmBQNB9\"> Escapes</a>.</p>\n<p><strong>Success</strong> Your opponent is <a class=\"entity-link\" draggable=\"true\" data-pack=\"pf2e.conditionitems\" data-id=\"kWc1fhmv9LBiTuei\"> Grabbed</a> until the end of your next turn unless you move or your opponent Escapes.</p>\n<p><strong>Failure</strong> You fail to grab your opponent. If you already had the opponent grabbed or restrained using a Grapple, those conditions on that creature end.</p>\n<p><strong>Critical Failure</strong> If you already had the opponent grabbed or restrained, it breaks free. Your target can either grab you, as if it succeeded at using the Grapple action against you, or force you to fall and land <a class=\"entity-link\" draggable=\"true\" data-pack=\"pf2e.conditionitems\" data-id=\"j91X7x0XSomq8d60\"> Prone</a>.</p>"
        },
        "rarity": {
            "value": "common"
        },
        "requirements": {
            "label": "Requirements",
            "type": "String",
            "value": ""
        },
        "rules": [],
        "skill_requirement": {
            "label": "Skill Req.",
            "skill": {
                "rank": "0",
                "skill": "athletics",
                "type": "Number"
            },
            "type": "String"
        },
        "skill_requirements": {
            "rank": "",
            "skill": ""
        },
        "source": {
            "label": "Source",
            "type": "String",
            "value": ""
        },
        "traits": {
            "custom": "",
            "label": "Traits",
            "type": "String",
            "value": [
                "attack",
                "skill"
            ]
        },
        "trigger": {
            "label": "Trigger",
            "type": "String",
            "value": ""
        },
        "usage": {
            "value": "held-in-one-hand"
        },
        "weapon": {
            "label": "Associated Weapon",
            "type": "String",
            "value": ""
        }
    },
    "effects": [],
    "flags": {},
    "img": "systems/pf2e/icons/actions/OneAction.png",
    "name": "Grapple",
    "permission": {
        "default": 0
    },
    "type": "action"
}
