{
    "_id": "BlAOM2X92SI6HMtJ",
    "data": {
        "actionCategory": {
            "value": ""
        },
        "actionType": {
            "label": "Action Type",
            "type": "String",
            "value": "action"
        },
        "actions": {
            "label": "Number of Actions",
            "type": "String",
            "value": "1"
        },
        "description": {
            "chat": "",
            "label": "Description",
            "type": "String",
            "unidentified": "",
            "value": "<p>You scan an area for signs of creatures or objects. If you're looking for creatures, choose an area you're scanning. If precision is necessary, the GM can have you select a 30-foot cone or a 15-foot burst within line of sight. You might take a penalty if you choose an area that's far away.<br><br>If you're using Seek to search for objects (including secret doors and hazards), you search up to a 10-foot square adjacent to you. The GM might determine you need to Seek as an activity, taking more actions or even minutes or hours if you're searching a particularly cluttered area.<br><br>The GM attempts a single secret Perception check for you and compares the result to the Stealth DCs of any <a class=\"entity-link\" draggable=\"true\" data-pack=\"pf2e.conditionitems\" data-id=\"VRSef5y1LmL2Hkjf\"> Undetected</a> or <a class=\"entity-link\" draggable=\"true\" data-pack=\"pf2e.conditionitems\" data-id=\"iU0fEDdBp3rXpTMC\"> Hidden</a> creatures in the area or the DC to detect each object in the area (as determined by the GM or by someone <a class=\"entity-link\" draggable=\"true\" data-pack=\"pf2e.actionspf2e\" data-id=\"qVNVSmsgpKFGk9hV\"> Concealing the Object</a>). A creature you detect might remain hidden, rather than becoming <a class=\"entity-link\" draggable=\"true\" data-pack=\"pf2e.conditionitems\" data-id=\"1wQY3JYyhMYeeV2G\"> Observed</a>, if you're using an imprecise sense or if an effect (such as <a class=\"entity-link\" draggable=\"true\" data-pack=\"pf2e.conditionitems\" data-id=\"zJxUflt9np0q4yML\"> Invisiblity</a>) prevents the subject from being observed.</p>\n<hr>\n<p><strong>Critical Success</strong> If you were searching for creatures, any undetected or hidden creature you critically succeeded against becomes observed by you. If you were searching for an object, you learn its location.</p>\n<p><strong>Success</strong> If you were searching for creatures, any undetected creature you succeeded against becomes hidden from you instead of undetected, and any hidden creature you succeeded against becomes observed by you. If you were searching for an object, you learn its location or get a clue to its whereabouts, as determined by the GM.</p>"
        },
        "rarity": {
            "value": "common"
        },
        "requirements": {
            "label": "Requirements",
            "type": "String",
            "value": ""
        },
        "rules": [],
        "skill_requirement": {
            "label": "Skill Req.",
            "skill": {
                "rank": "",
                "skill": "",
                "type": "Number"
            },
            "type": "String"
        },
        "skill_requirements": {
            "rank": "",
            "skill": ""
        },
        "source": {
            "label": "Source",
            "type": "String",
            "value": ""
        },
        "traits": {
            "custom": "",
            "label": "Traits",
            "type": "String",
            "value": [
                "concentrate",
                "secret"
            ]
        },
        "trigger": {
            "label": "Trigger",
            "type": "String",
            "value": ""
        },
        "usage": {
            "value": "held-in-one-hand"
        },
        "weapon": {
            "label": "Associated Weapon",
            "type": "String",
            "value": ""
        }
    },
    "effects": [],
    "flags": {},
    "img": "systems/pf2e/icons/actions/OneAction.png",
    "name": "Seek",
    "permission": {
        "default": 0
    },
    "type": "action"
}
