{
    "_id": "BASCKOPvNGgoHGid",
    "data": {
        "actionCategory": {
            "value": ""
        },
        "actionType": {
            "value": "passive"
        },
        "actions": {
            "value": ""
        },
        "description": {
            "chat": "",
            "unidentified": "",
            "value": "<p><strong>Prerequisites</strong> @Compendium[pf2e.feats-srd.6RjilN93bgy34y3H]{Basic Red Mantis Magic}</p>\n<hr>\n<p>You sense if a creature you have slain in the last year has been restored to life, as long as you and that creature are on the same plane. You also gain the @Compendium[pf2e.spells-srd.IT1aaqDBAISlHDUV]{Achaekek's Clutch} focus spell. If you don't already have one, you gain a focus pool of 1 Focus Point, which you can Refocus by praying to Achaekek or researching your assigned kill.</p>"
        },
        "featType": {
            "value": "archetype"
        },
        "level": {
            "value": "8"
        },
        "prerequisites": {
            "value": ""
        },
        "rarity": {
            "value": "common"
        },
        "source": {
            "value": ""
        },
        "traits": {
            "custom": "",
            "rarity": {
                "value": "rare"
            },
            "selected": {
                "archetype": "Archetype"
            },
            "value": [
                "archetype"
            ]
        },
        "usage": {
            "value": "held-in-one-hand"
        }
    },
    "flags": {},
    "img": "systems/pf2e/icons/features/feats/feats.jpg",
    "name": "Achaekek's Grip",
    "permission": {
        "default": 0
    },
    "type": "feat"
}
