{
    "_id": "Wx12NUjqTOjFrEoW",
    "data": {
        "actionCategory": {
            "value": ""
        },
        "actionType": {
            "value": "passive"
        },
        "actions": {
            "value": ""
        },
        "description": {
            "chat": "",
            "unidentified": "",
            "value": "<p>Your taunts and threats earn your foes ire. When you successfully @Compendium[pf2e.actionspf2e.2u915NdUyQan6uKF]{Demoralize} a creature, its @Compendium[pf2e.conditionspf2e.TBSHQspnbcqxsmjL]{Frightened} condition can't decrease to less than 1 at the end of its turn until it either uses a hostile action against you or can no longer observe or sense you for at least 1 round.&nbsp;</p>"
        },
        "featType": {
            "value": "class"
        },
        "level": {
            "value": "2"
        },
        "prerequisites": {
            "value": ""
        },
        "rarity": {
            "value": "common"
        },
        "source": {
            "value": ""
        },
        "traits": {
            "rarity": {
                "value": "common"
            },
            "value": [
                "swashbuckler"
            ]
        },
        "usage": {
            "value": ""
        }
    },
    "flags": {},
    "img": "systems/pf2e/icons/features/feats/feats.jpg",
    "name": "Antagonize",
    "permission": {
        "default": 0
    },
    "type": "feat"
}
