{
    "_id": "4QFElZoWjg1X0vsg",
    "data": {
        "actionCategory": {
            "value": ""
        },
        "actionType": {
            "value": "passive"
        },
        "actions": {
            "value": ""
        },
        "description": {
            "chat": "",
            "unidentified": "",
            "value": "<p>You become trained in all simple and martial weapons in the bow weapon group. Whenever you gain a class feature that grants you expert or greater proficiency in certain weapons, you also gain that proficiency rank in all simple and martial weapons in the bow weapon group. If you are at least an expert in the bow you are using, you gain access to the critical specialization effect with that bow.</p>\n<p><strong>Special</strong> You can't select another dedication feat until you have gained two other feats from the archer archetype.</p>"
        },
        "featType": {
            "value": "archetype"
        },
        "level": {
            "value": "2"
        },
        "prerequisites": {
            "value": ""
        },
        "rarity": {
            "value": "common"
        },
        "source": {
            "value": ""
        },
        "traits": {
            "rarity": {
                "value": "common"
            },
            "value": [
                "archetype",
                "dedication"
            ]
        },
        "usage": {
            "value": ""
        }
    },
    "flags": {},
    "img": "systems/pf2e/icons/features/feats/feats.jpg",
    "name": "Archer Dedication",
    "permission": {
        "default": 0
    },
    "type": "feat"
}
