{
    "_id": "pLjvgeqwHrYdg411",
    "data": {
        "actionCategory": {
            "value": ""
        },
        "actionType": {
            "label": "Action Type",
            "type": "String",
            "value": "passive"
        },
        "actions": {
            "label": "Number of Actions",
            "type": "String",
            "value": ""
        },
        "description": {
            "chat": "",
            "label": "Description",
            "type": "String",
            "unidentified": "",
            "value": "<p><strong>Prerequisites</strong> expert in Nature</p>\n<hr>\n<p>You forge strong connections with animals. You can spend 7 days of downtime trying to bond with a normal animal (not a companion or other special animal). After this duration, attempt a DC 20 Nature check. If successful, you bond with the animal. The animal is permanently helpful to you, unless you do something egregious to break your bond. A helpful animal is easier to direct, as described under Command an Animal on page 249. Bonding with a new animal ends any previous bond you had. You can't have both a bonded animal and an animal companion (though you can have both a bonded animal and a familiar).</p>"
        },
        "featType": {
            "label": "Feat Type",
            "type": "String",
            "value": "skill"
        },
        "level": {
            "label": "Feat Level",
            "type": "String",
            "value": "2"
        },
        "prerequisites": {
            "label": "Prerequisites",
            "type": "String",
            "value": "expert in Nature"
        },
        "rarity": {
            "value": "common"
        },
        "source": {
            "label": "Source",
            "type": "String",
            "value": ""
        },
        "traits": {
            "custom": "",
            "label": "Traits",
            "rarity": {
                "value": "common"
            },
            "type": "String",
            "value": [
                "general",
                "skill",
                "downtime"
            ]
        },
        "usage": {
            "value": "held-in-one-hand"
        }
    },
    "flags": {},
    "img": "systems/pf2e/icons/features/feats/feats.jpg",
    "name": "Bonded Animal",
    "permission": {
        "default": 0
    },
    "type": "feat"
}
