{
    "_id": "JtjnFsOToBLnSRO9",
    "data": {
        "actionCategory": {
            "value": ""
        },
        "actionType": {
            "label": "Action Type",
            "type": "String",
            "value": "passive"
        },
        "actions": {
            "label": "Number of Actions",
            "type": "String",
            "value": ""
        },
        "description": {
            "chat": "",
            "label": "Description",
            "type": "String",
            "unidentified": "",
            "value": "<p><strong>Prerequisites</strong> trained in Society</p>\n<hr>\n<p>You were raised among the nobility or have learned proper etiquette and bearing, allowing you to present yourself as a noble and play games of influence and politics. You can use Society to Make an Impression on a noble, as well as with Impersonate to pretend to be a noble if you aren't one. If you want to impersonate a specific noble, you still need to use Deception to Impersonate normally, and to Lie when necessary.</p>"
        },
        "featType": {
            "label": "Feat Type",
            "type": "String",
            "value": "skill"
        },
        "level": {
            "label": "Feat Level",
            "type": "String",
            "value": "1"
        },
        "prerequisites": {
            "label": "Prerequisites",
            "type": "String",
            "value": "trained in Society"
        },
        "rarity": {
            "value": "common"
        },
        "source": {
            "label": "Source",
            "type": "String",
            "value": ""
        },
        "traits": {
            "custom": "",
            "label": "Traits",
            "rarity": {
                "value": "common"
            },
            "type": "String",
            "value": [
                "general",
                "skill"
            ]
        },
        "usage": {
            "value": "held-in-one-hand"
        }
    },
    "flags": {},
    "img": "systems/pf2e/icons/features/feats/feats.jpg",
    "name": "Courtly Graces",
    "permission": {
        "default": 0
    },
    "type": "feat"
}
