{
    "_id": "n0693gmx3k9wvb1N",
    "data": {
        "actionCategory": {
            "value": ""
        },
        "actionType": {
            "value": "passive"
        },
        "actions": {
            "value": ""
        },
        "description": {
            "chat": "",
            "unidentified": "",
            "value": "<p><span id=\"ctl00_MainContent_DetailedOutput\"><strong>Prerequisites</strong> Boaster's Challenge<br></span></p>\n<hr>\n<p>If your skill check to challenge a foe is a success, the target of your challenge takes a –1 circumstance penalty to attack rolls (or –2 if you critically succeed) until the end of your next turn.&nbsp;</p>"
        },
        "featType": {
            "value": "archetype"
        },
        "level": {
            "value": "10"
        },
        "prerequisites": {
            "value": "Boaster's Challenge"
        },
        "rarity": {
            "value": "common"
        },
        "source": {
            "value": ""
        },
        "traits": {
            "custom": "",
            "rarity": {
                "value": "common"
            },
            "value": [
                "archetype"
            ]
        },
        "usage": {
            "value": "held-in-one-hand"
        }
    },
    "flags": {},
    "img": "systems/pf2e/icons/features/feats/feats.jpg",
    "name": "Demanding Challenge",
    "permission": {
        "default": 0
    },
    "type": "feat"
}
