{
    "_id": "5cYFHKQK6OZCwavI",
    "data": {
        "actionCategory": {
            "value": ""
        },
        "actionType": {
            "value": "passive"
        },
        "actions": {
            "value": ""
        },
        "description": {
            "chat": "",
            "unidentified": "",
            "value": "<p>When you're on a case, you stay watchful and resolute to avoid tricks your suspect might pull.</p>\n<p>You gain your circumstance bonus from <a class=\"entity-link\" data-pack=\"pf2e.actionspf2e\" data-id=\"xTK2zsWFyxSJvYbX\" draggable=\"true\"><i class=\"fas fa-suitcase\"></i> Pursue a Lead</a> on saving throws (and their DCs, as normal) against the subject of a lead, and you can use <a class=\"entity-link\" data-pack=\"pf2e.actionspf2e\" data-id=\"25WDi1cVUrW92sUj\" draggable=\"true\"><i class=\"fas fa-suitcase\"></i> Clue In</a> to assist an ally's saving throw against that subject.</p>"
        },
        "featType": {
            "value": "class"
        },
        "level": {
            "value": "4"
        },
        "prerequisites": {
            "value": ""
        },
        "rarity": {
            "value": "common"
        },
        "source": {
            "value": ""
        },
        "traits": {
            "rarity": {
                "value": "common"
            },
            "value": [
                "investigator"
            ]
        },
        "usage": {
            "value": ""
        }
    },
    "flags": {},
    "img": "systems/pf2e/icons/features/feats/feats.jpg",
    "name": "Detective's Readiness",
    "permission": {
        "default": 0
    },
    "type": "feat"
}
