{
    "_id": "nL82Dzh0QwkNkJDA",
    "data": {
        "actionCategory": {
            "value": ""
        },
        "actionType": {
            "value": "action"
        },
        "actions": {
            "value": "1"
        },
        "description": {
            "chat": "",
            "unidentified": "",
            "value": "<p><strong>Prerequisites </strong>trained in Athletics</p>\n<hr>\n<p>You attack with enough force to knock the weapon out of your foe's hands. Make a melee <a class=\"entity-link\" data-pack=\"pf2e.actionspf2e\" data-id=\"VjxZFuUXrCU94MWR\" draggable=\"true\"><i class=\"fas fa-suitcase\"></i> Strike</a>; if you hit, you can attempt an Athletics check to <a class=\"entity-link\" data-pack=\"pf2e.actionspf2e\" data-id=\"Dt6B1slsBy8ipJu9\" draggable=\"true\"><i class=\"fas fa-suitcase\"></i> Disarm</a> that foe.</p>"
        },
        "featType": {
            "value": "class"
        },
        "level": {
            "value": "8"
        },
        "prerequisites": {
            "value": "trained in Athletics"
        },
        "rarity": {
            "value": "common"
        },
        "source": {
            "value": ""
        },
        "traits": {
            "rarity": {
                "value": "common"
            },
            "value": [
                "barbarian",
                "flourish",
                "rage"
            ]
        },
        "usage": {
            "value": ""
        }
    },
    "flags": {},
    "img": "systems/pf2e/icons/features/feats/feats.jpg",
    "name": "Disarming Assault",
    "permission": {
        "default": 0
    },
    "type": "feat"
}
