{
    "_id": "8JMOgtB3XG7o6ffW",
    "data": {
        "actionCategory": {
            "value": ""
        },
        "actionType": {
            "value": "passive"
        },
        "actions": {
            "value": ""
        },
        "description": {
            "chat": "",
            "unidentified": "",
            "value": "<p><strong>Prerequisites</strong> @Compendium[pf2e.spells-srd.IAjvwqgiDr3qGYxY]{Inspire Courage}</p>\n<hr>\n<p>Your Inspire Courage lets loose a discordant shriek that imbues your allies' attacks with powerful sonic reverberations.</p>\n<p>While your allies are affected by your <em>inspire courage</em>, their weapon @Compendium[pf2e.actionspf2e.VjxZFuUXrCU94MWR]{Strikes} and unarmed attacks deal an additional [[/r 1d6 #sonic]] sonic damage.</p>"
        },
        "featType": {
            "value": "class"
        },
        "level": {
            "value": "18"
        },
        "prerequisites": {
            "value": "inspire courage"
        },
        "rarity": {
            "value": "common"
        },
        "source": {
            "value": ""
        },
        "traits": {
            "rarity": {
                "value": "common"
            },
            "value": [
                "bard",
                "evocation",
                "sonic"
            ]
        },
        "usage": {
            "value": ""
        }
    },
    "flags": {},
    "img": "systems/pf2e/icons/features/feats/feats.jpg",
    "name": "Discordant Voice",
    "permission": {
        "default": 0
    },
    "type": "feat"
}
