{
    "_id": "zWEu9xuAxBnPoSrv",
    "data": {
        "actionCategory": {
            "value": ""
        },
        "actionType": {
            "value": "passive"
        },
        "actions": {
            "value": ""
        },
        "description": {
            "chat": "",
            "unidentified": "",
            "value": "<p><strong>Prerequisites</strong> <a class=\"entity-link\" data-pack=\"pf2e.feats-srd\" data-id=\"20jNBiIIxaiOVyi0\" draggable=\"true\"><i class=\"fas fa-suitcase\"></i> Oozemorph Dedication</a></p>\n<hr>\n<p>Your internal organs and blood vessels have shifted and changed, and even you don't know precisely where in your body they are. You gain resistance to precision damage equal to 2 + your number of class feats from the oozemorph archetype. The DC of your flat checks to recover from persistent bleed damage is 13, rather than 15.</p>"
        },
        "featType": {
            "value": "archetype"
        },
        "level": {
            "value": "4"
        },
        "prerequisites": {
            "value": ""
        },
        "rarity": {
            "value": "common"
        },
        "source": {
            "value": ""
        },
        "traits": {
            "custom": "",
            "rarity": {
                "value": "common"
            },
            "selected": {
                "archetype": "Archetype"
            },
            "value": [
                "archetype"
            ]
        },
        "usage": {
            "value": "held-in-one-hand"
        }
    },
    "flags": {},
    "img": "systems/pf2e/icons/features/feats/feats.jpg",
    "name": "Disturbing Defense",
    "permission": {
        "default": 0
    },
    "type": "feat"
}
