{
    "_id": "2HeRmbcHcsRMccir",
    "data": {
        "actionCategory": {
            "value": ""
        },
        "actionType": {
            "value": "passive"
        },
        "actions": {
            "value": ""
        },
        "description": {
            "chat": "",
            "unidentified": "",
            "value": "<p><strong>Prerequisites </strong>@Compendium[pf2e.feats-srd.kusyLsA2YJYve0Tj]{Advanced Revelation}}</p>\n<hr>\n<p>You have broadened your understanding of the divine and can tap into the wonders of a different mystery. Select one revelation spell from a mystery other than your own. You can choose only an initial revelation spell or an advanced revelation spell.</p>\n<p>When you cast this revelation spell, you gain the effects of the minor curse from that mystery in addition to the normal curse effects you gain from casting a revelation spell. This additional minor curse effect remains until your next daily preparations. Any ability that lets you cast a revelation spell without increasing the severity of your curse also prevents you from gaining this additional curse effect.</p>\n<p>You can't cast your chosen revelation spell if any of the following conditions are true: its mystery's curse effects directly conflict with or negate the effects of your own mystery's curse, the curse would have no effect on you (for example, removing an ability from your original mystery that you lack), or either of these criteria would be met once you finish Casting the Spell.</p>"
        },
        "featType": {
            "value": "class"
        },
        "level": {
            "value": "16"
        },
        "prerequisites": {
            "value": "Advanced Revelation"
        },
        "rarity": {
            "value": "common"
        },
        "source": {
            "value": ""
        },
        "traits": {
            "rarity": {
                "value": "common"
            },
            "value": [
                "oracle"
            ]
        },
        "usage": {
            "value": ""
        }
    },
    "flags": {},
    "img": "systems/pf2e/icons/features/feats/feats.jpg",
    "name": "Diverse Mystery",
    "permission": {
        "default": 0
    },
    "type": "feat"
}
