{
    "_id": "EGtuOZ3E9y0qZ1oJ",
    "data": {
        "actionCategory": {
            "value": ""
        },
        "actionType": {
            "value": "passive"
        },
        "actions": {
            "value": null
        },
        "description": {
            "chat": "",
            "unidentified": "",
            "value": "<p><strong>Prerequisites </strong>Spellmaster Dedication</p>\n<hr>\n<p>You can use your magic to transform into a small creature of a type that commonly serves as a spellcaster's familiar, potentially allowing you to safely scout for your party while retaining a degree of spellcasting ability. You gain the <a class=\"entity-link\" draggable=\"true\" data-pack=\"pf2e.spells-srd\" data-id=\"CHZQJg7O7991Vl4m\"><i class=\"fas fa-suitcase\"></i> Familiar Form</a> focus spell. Increase the number of Focus Points in your focus pool by 1.</p>"
        },
        "featType": {
            "value": "archetype"
        },
        "level": {
            "value": "8"
        },
        "prerequisites": {
            "value": "Spellmaster Dedication"
        },
        "rarity": {
            "value": "common"
        },
        "rules": [],
        "source": {
            "value": ""
        },
        "traits": {
            "custom": "",
            "rarity": {
                "value": "common"
            },
            "value": [
                "archetype"
            ]
        },
        "usage": {
            "value": "held-in-one-hand"
        }
    },
    "effects": [],
    "flags": {
        "core": {
            "sourceId": "Item.uoU0k30s3xHmMWUC"
        }
    },
    "img": "systems/pf2e/icons/features/feats/feats.jpg",
    "name": "Familiar Form",
    "permission": {
        "default": 0
    },
    "type": "feat"
}
