{
    "_id": "qgNc5XwjsaWET0Op",
    "data": {
        "actionCategory": {
            "value": ""
        },
        "actionType": {
            "value": "passive"
        },
        "actions": {
            "value": ""
        },
        "description": {
            "chat": "",
            "unidentified": "",
            "value": "<p><strong>Prerequisites </strong><a class=\"entity-link\" data-pack=\"pf2e.classfeatures\" data-id=\"RQH6vigvhmiYKKjg\" draggable=\"true\"><i class=\"fas fa-suitcase\"></i> Precise Strike</a></p>\n<hr>\n<p>You've learned to apply your flashy techniques to thrown weapons as easily as melee attacks.</p>\n<p>When you have <a class=\"entity-link\" data-pack=\"pf2e.classfeatures\" data-id=\"LzYi0OuOoypNb6jd\" draggable=\"true\"><i class=\"fas fa-suitcase\"></i> Panache</a>, you apply your precise strike damage on ranged <a class=\"entity-link\" data-pack=\"pf2e.actionspf2e\" data-id=\"VjxZFuUXrCU94MWR\" draggable=\"true\"><i class=\"fas fa-suitcase\"></i> Strikes</a> you make with a thrown weapon within that weapon's first range increment. The thrown weapon must be an agile or finesse weapon.</p>\n<p>This also allows you to make a thrown weapon ranged Strike for <a class=\"entity-link\" data-pack=\"pf2e.classfeatures\" data-id=\"pyo0vmxUFIFX2GNl\" draggable=\"true\"><i class=\"fas fa-suitcase\"></i> Confident Finisher</a> and any other finisher that includes a Strike that can benefit from your precise strike.</p>"
        },
        "featType": {
            "value": "class"
        },
        "level": {
            "value": "1"
        },
        "prerequisites": {
            "value": "precise strike"
        },
        "rarity": {
            "value": "common"
        },
        "source": {
            "value": ""
        },
        "traits": {
            "rarity": {
                "value": "common"
            },
            "value": [
                "swashbuckler"
            ]
        },
        "usage": {
            "value": ""
        }
    },
    "flags": {},
    "img": "systems/pf2e/icons/features/feats/feats.jpg",
    "name": "Flying Blade",
    "permission": {
        "default": 0
    },
    "type": "feat"
}
