{
    "_id": "NNeRv9Gcua1kMp4s",
    "data": {
        "actionCategory": {
            "value": ""
        },
        "actionType": {
            "value": "action"
        },
        "actions": {
            "value": "1"
        },
        "description": {
            "chat": "",
            "unidentified": "",
            "value": "<p><strong>Frequency</strong> once per day</p>\n<hr>\n<p>You've learned to forestall the effects of your curse somewhat.</p>\n<p>If the next action you use is to cast a revelation spell, the severity of your curse doesn't increase.</p>"
        },
        "featType": {
            "value": "class"
        },
        "level": {
            "value": "14"
        },
        "prerequisites": {
            "value": ""
        },
        "rarity": {
            "value": "common"
        },
        "source": {
            "value": ""
        },
        "traits": {
            "rarity": {
                "value": "common"
            },
            "value": [
                "concentrate",
                "metamagic",
                "oracle"
            ]
        },
        "usage": {
            "value": ""
        }
    },
    "flags": {},
    "img": "systems/pf2e/icons/features/feats/feats.jpg",
    "name": "Forestall Curse",
    "permission": {
        "default": 0
    },
    "type": "feat"
}
