{
    "_id": "RsluSLtSWq1vN8Hc",
    "data": {
        "actionCategory": {
            "value": ""
        },
        "actionType": {
            "label": "Action Type",
            "type": "String",
            "value": "action"
        },
        "actions": {
            "label": "Number of Actions",
            "type": "String",
            "value": "1"
        },
        "description": {
            "chat": "",
            "label": "Description",
            "type": "String",
            "unidentified": "",
            "value": "<p><strong>Prerequisites</strong> Strength 14, Wild Shape</p>\n<hr>\n<p>With additional care and effort, you can take on an alternate form for a longer period of time. If your next action is to cast wild shape, wild shape's spell level is 2 lower than normal (minimum 1st level), but you can remain transformed for up to 1 hour or the listed duration (whichever is longer). You can still Dismiss the form at any time, as permitted by the spell.</p>"
        },
        "featType": {
            "label": "Feat Type",
            "type": "String",
            "value": "class"
        },
        "level": {
            "label": "Feat Level",
            "type": "String",
            "value": "4"
        },
        "prerequisites": {
            "label": "Prerequisites",
            "type": "String",
            "value": "Strength 14, Wild Shape"
        },
        "rarity": {
            "value": "common"
        },
        "source": {
            "label": "Source",
            "type": "String",
            "value": ""
        },
        "traits": {
            "custom": "",
            "label": "Traits",
            "rarity": {
                "value": "common"
            },
            "type": "String",
            "value": [
                "manipulate",
                "druid",
                "metamagic"
            ]
        },
        "usage": {
            "value": "held-in-one-hand"
        }
    },
    "flags": {},
    "img": "systems/pf2e/icons/features/feats/feats.jpg",
    "name": "Form Control",
    "permission": {
        "default": 0
    },
    "type": "feat"
}
