{
    "_id": "nnsoFOtuHnpz2QHc",
    "data": {
        "actionCategory": {
            "value": ""
        },
        "actionType": {
            "label": "Action Type",
            "type": "String",
            "value": "passive"
        },
        "actions": {
            "label": "Number of Actions",
            "type": "String",
            "value": ""
        },
        "description": {
            "chat": "",
            "label": "Description",
            "type": "String",
            "unidentified": "",
            "value": "<p>Your mastery of alchemical secrets enables you to replicate effects most believe can be achieved only via magic. Select a number of potions equal to your Intelligence modifier (minimum 1) of 9th level or lower. You gain formulas to create these potions as alchemical items with the elixir trait. When making these alchemical elixirs, you can substitute alchemical reagents for an equal value of magical components, and you can use alchemist's tools (for Quick Alchemy) or an alchemist's lab (for the Craft activity) instead of any other required tool kits. Other than that, the formula does not change. Once you've chosen the potion formulas, they can't be changed.</p>"
        },
        "featType": {
            "label": "Feat Type",
            "type": "String",
            "value": "class"
        },
        "level": {
            "label": "Feat Level",
            "type": "String",
            "value": "18"
        },
        "prerequisites": {
            "label": "Prerequisites",
            "type": "String",
            "value": ""
        },
        "rarity": {
            "value": "common"
        },
        "source": {
            "label": "Source",
            "type": "String",
            "value": ""
        },
        "traits": {
            "custom": "",
            "label": "Traits",
            "rarity": {
                "value": "common"
            },
            "type": "String",
            "value": [
                "alchemist"
            ]
        },
        "usage": {
            "value": "held-in-one-hand"
        }
    },
    "flags": {},
    "img": "systems/pf2e/icons/features/feats/feats.jpg",
    "name": "Improbable Elixirs",
    "permission": {
        "default": 0
    },
    "type": "feat"
}
