{
    "_id": "pQQhrcj1u6hUUc8L",
    "data": {
        "actionCategory": {
            "value": ""
        },
        "actionType": {
            "value": "reaction"
        },
        "actions": {
            "value": ""
        },
        "description": {
            "chat": "",
            "unidentified": "",
            "value": "<p><span id=\"ctl00_MainContent_DetailedOutput\"><strong>Access</strong> Taldan nationality<br><strong>Trigger</strong> You are affected by an emotion effect.<br></span></p>\n<hr>\n<p>Taldan pride means you never show weakness. Roll a Deception check and compare the result to any observing creatures' Perception DCs. On a success, that creature believes you were unaffected by the emotion effect. A creature tricked in this manner can't benefit from the emotion effect and can't use abilities that require you to be under this emotion effect; for example, if you successfully use this ability to trick a will-o'-wisp into believing you aren't under a fear effect, it can't use its Feed on Fear ability on you.&nbsp;</p>"
        },
        "featType": {
            "value": "ancestry"
        },
        "level": {
            "value": "1"
        },
        "prerequisites": {
            "value": ""
        },
        "rarity": {
            "value": "common"
        },
        "source": {
            "value": ""
        },
        "traits": {
            "custom": "",
            "rarity": {
                "value": "common"
            },
            "value": [
                "uncommon",
                "human"
            ]
        },
        "usage": {
            "value": "held-in-one-hand"
        }
    },
    "flags": {},
    "img": "systems/pf2e/icons/features/feats/feats.jpg",
    "name": "Keep Up Appearances",
    "permission": {
        "default": 0
    },
    "type": "feat"
}
