{
    "_id": "bWYnjNa2RknMoibg",
    "data": {
        "actionCategory": {
            "value": ""
        },
        "actionType": {
            "value": "passive"
        },
        "actions": {
            "value": ""
        },
        "description": {
            "chat": "",
            "unidentified": "",
            "value": "<div><strong>Archetype&nbsp;</strong>@Compendium[pf2e.archetypes.Utxq3fo8AoPyfh4K]{Lastwall Sentry}</div>\n<div><span id=\"ctl00_MainContent_DetailedOutput\"><strong>Prerequisites</strong> member of the Knights of Lastwall, Shield Block<br><strong>Access</strong> You are from the Eye of Dread region.<br></span></div>\n<hr>\n<p>You've sworn yourself as a sentry for the Knights of Lastwall, the first line of defense against incursions by the Whispering Tyrant throughout Golarion. You become trained in Athletics and in Undead Lore; if you were already trained, you become an expert instead. Finally, you gain the Reactive Shield fighter feat.</p>\n<p><strong>Special</strong>&nbsp;You can't select another dedication feat until you have gained two other feats from the Lastwall sentry archetype.&nbsp;</p>"
        },
        "featType": {
            "value": "archetype"
        },
        "level": {
            "value": "2"
        },
        "prerequisites": {
            "value": "member of the Knights of Lastwall, Shield Block"
        },
        "rarity": {
            "value": "common"
        },
        "source": {
            "value": ""
        },
        "traits": {
            "custom": "",
            "rarity": {
                "value": "uncommon"
            },
            "value": [
                "uncommon",
                "archetype",
                "dedication"
            ]
        },
        "usage": {
            "value": "held-in-one-hand"
        }
    },
    "flags": {},
    "img": "systems/pf2e/icons/features/feats/feats.jpg",
    "name": "Lastwall Sentry Dedication",
    "permission": {
        "default": 0
    },
    "type": "feat"
}
