{
    "_id": "aOIZvx5fx5jVHHOO",
    "data": {
        "actionCategory": {
            "value": ""
        },
        "actionType": {
            "value": "action"
        },
        "actions": {
            "value": "1"
        },
        "description": {
            "chat": "",
            "unidentified": "",
            "value": "<p><strong>Requirements</strong> You must be adjacent to a living creature.</p>\n<hr>\n<p>You phase through a space that a living creature occupies in a flash, spontaneously appearing on the opposite side of it in a vibrant display of colorful light.</p>\n<p>You move from your current location to another location that's still adjacent to the same living creature, but on the opposite side or corner of the creature's space.</p>\n<p>To determine whether a position is valid, use the same rules as for flanking: a line through the center of the two spaces must pass through opposite sides or corners of the creature's space.</p>\n<p>You pass through the creature's life force, appearing in the selected location; this doesn't trigger reactions based on movement. You must be able to see your destination, and you can't move farther than your Speed would allow.</p>"
        },
        "featType": {
            "value": "ancestry"
        },
        "level": {
            "value": "9"
        },
        "prerequisites": {
            "value": ""
        },
        "rarity": {
            "value": "common"
        },
        "source": {
            "value": ""
        },
        "traits": {
            "rarity": {
                "value": "common"
            },
            "value": [
                "gnome",
                "move",
                "necromancy",
                "teleportation"
            ]
        },
        "usage": {
            "value": ""
        }
    },
    "flags": {},
    "img": "systems/pf2e/icons/features/feats/feats.jpg",
    "name": "Life Leap",
    "permission": {
        "default": 0
    },
    "type": "feat"
}
