{
    "_id": "chmQgMamyaZX90Tc",
    "data": {
        "actionCategory": {
            "value": ""
        },
        "actionType": {
            "value": "passive"
        },
        "actions": {
            "value": ""
        },
        "description": {
            "chat": "",
            "unidentified": "",
            "value": "<p><strong>Prerequisites </strong>@Compendium[pf2e.feats-srd.lyD6eXl4wc7Pq61q]{Loremaster Dedication}</p>\n<hr>\n<p>You've learned those tidbits of magic that are most conducive to furthering your acquisition and transmission of knowledge. You gain @Compendium[pf2e.spells-srd.izcxFQFwf3woCnFs]{Guidance}, @Compendium[pf2e.spells-srd.vLzFcIaSXs7YTIqJ]{Message}<em>,</em> and @Compendium[pf2e.spells-srd.AUctDF2fqPZN2w4W]{Sigil} as innate occult cantrips.</p>"
        },
        "featType": {
            "value": "archetype"
        },
        "level": {
            "value": "4"
        },
        "prerequisites": {
            "value": "Loremaster Dedication"
        },
        "rarity": {
            "value": "common"
        },
        "source": {
            "value": ""
        },
        "traits": {
            "rarity": {
                "value": "common"
            },
            "value": [
                "archetype"
            ]
        },
        "usage": {
            "value": ""
        }
    },
    "flags": {},
    "img": "systems/pf2e/icons/features/feats/feats.jpg",
    "name": "Magical Edification",
    "permission": {
        "default": 0
    },
    "type": "feat"
}
