{
    "_id": "6ON8DjFXSMITZleX",
    "data": {
        "actionCategory": {
            "value": ""
        },
        "actionType": {
            "value": "action"
        },
        "actions": {
            "value": "3"
        },
        "description": {
            "chat": "",
            "unidentified": "",
            "value": "<p><strong>Prerequisites </strong>trained in Diplomacy</p>\n<hr>\n<p>You attempt to reduce panic. Attempt a Diplomacy check, comparing it to the Will DC of creatures in a 10-foot emanation around you who are <a class=\"entity-link\" data-pack=\"pf2e.conditionspf2e\" data-id=\"TBSHQspnbcqxsmjL\" draggable=\"true\"><i class=\"fas fa-book-open\"></i> Frightened</a>. Each of them is temporarily immune for 1 hour.</p>\n<hr>\n<p><strong>Critical Success</strong> Reduce the creature's frightened value by 2.</p>\n<p><strong>Success</strong> Reduce the creature's frightened value by 1.</p>"
        },
        "featType": {
            "value": "skill"
        },
        "level": {
            "value": "1"
        },
        "prerequisites": {
            "value": "trained in Diplomacy"
        },
        "rarity": {
            "value": "common"
        },
        "source": {
            "value": ""
        },
        "traits": {
            "rarity": {
                "value": "common"
            },
            "value": [
                "auditory",
                "concentrate",
                "emotion",
                "general",
                "linguistic",
                "mental",
                "skill"
            ]
        },
        "usage": {
            "value": ""
        }
    },
    "flags": {},
    "img": "systems/pf2e/icons/features/feats/feats.jpg",
    "name": "No Cause For Alarm",
    "permission": {
        "default": 0
    },
    "type": "feat"
}
