{
    "_id": "i86JRWsFRpfEJnZP",
    "data": {
        "actionCategory": {
            "value": ""
        },
        "actionType": {
            "value": "passive"
        },
        "actions": {
            "value": ""
        },
        "description": {
            "chat": "",
            "unidentified": "",
            "value": "<p><strong>Prerequisites </strong>@Compendium[world.feats-apg-data-entry.NfKbS4FFylCg14W5]{Pirate Dedication}</p>\n<hr>\n<p>You're particularly skilled at wielding traditional pirate weapons. You become trained with the following weapons: <a class=\"entity-link\" data-pack=\"pf2e.equipment-srd\" data-id=\"LGgvev6AV0So8tP9\" draggable=\"true\"><i class=\"fas fa-suitcase\"></i> Hatchet</a>, <a class=\"entity-link\" data-pack=\"pf2e.equipment-srd\" data-id=\"tH5GirEy7YB3ZgCk\" draggable=\"true\"><i class=\"fas fa-suitcase\"></i> Rapier</a>, <a class=\"entity-link\" data-pack=\"pf2e.equipment-srd\" data-id=\"grmaV4GdoGD7sKbn\" draggable=\"true\"><i class=\"fas fa-suitcase\"></i> Scimitar</a>, and <a class=\"entity-link\" data-pack=\"pf2e.equipment-srd\" data-id=\"f1gwoTkf3Nn0v3PN\" draggable=\"true\"><i class=\"fas fa-suitcase\"></i> Whip</a>.</p>\n<p>Whenever you gain a class feature that grants you expert or greater proficiency with a given weapon or weapons, you also gain that proficiency rank for these weapons.</p>"
        },
        "featType": {
            "value": "archetype"
        },
        "level": {
            "value": "4"
        },
        "prerequisites": {
            "value": "Pirate Dedication"
        },
        "rarity": {
            "value": "common"
        },
        "rules": [],
        "source": {
            "value": ""
        },
        "traits": {
            "rarity": {
                "value": "common"
            },
            "value": [
                "archetype"
            ]
        },
        "usage": {
            "value": ""
        }
    },
    "flags": {},
    "img": "systems/pf2e/icons/features/feats/feats.jpg",
    "name": "Pirate Weapon Training",
    "permission": {
        "default": 0
    },
    "type": "feat"
}
