{
    "_id": "RlhvppSmQRqL2RUe",
    "data": {
        "actionCategory": {
            "value": ""
        },
        "actionType": {
            "value": "passive"
        },
        "actions": {
            "value": ""
        },
        "description": {
            "chat": "",
            "unidentified": "",
            "value": "<p><strong>Prerequisites </strong>@Compendium[pf2e.feats-srd.1t5479E6bdvFs4E7]{Talisman Dabbler Dedication}</p>\n<hr>\n<p>You can attach a talisman using only a bit of glue and some string. You gain the @Compendium[pf2e.feats-srd.x9xA8P2Vlz98He7C]{Rapid Affixture} skill feat, even if you don't meet the prerequisites. When you use it, you can affix or remove up to four talismans in 1 minute instead of just one.</p>\n<p>You gain the ability to @Compendium[pf2e.actionspf2e.UAaQk93a30nx0nYY]{Affix a Talisman} as a 3-action activity from that feat at 12th level, regardless of your Crafting proficiency.</p>"
        },
        "featType": {
            "value": "archetype"
        },
        "level": {
            "value": "4"
        },
        "prerequisites": {
            "value": "Talisman Dabbler Dedication"
        },
        "rarity": {
            "value": "common"
        },
        "rules": [],
        "source": {
            "value": ""
        },
        "traits": {
            "rarity": {
                "value": "common"
            },
            "value": [
                "archetype"
            ]
        },
        "usage": {
            "value": ""
        }
    },
    "flags": {},
    "img": "systems/pf2e/icons/features/feats/feats.jpg",
    "name": "Quick Fix",
    "permission": {
        "default": 0
    },
    "type": "feat"
}
