{
    "_id": "4Q9Q41KLPYJMdV4b",
    "data": {
        "actionCategory": {
            "value": ""
        },
        "actionType": {
            "value": "reaction"
        },
        "actions": {
            "value": ""
        },
        "description": {
            "chat": "",
            "unidentified": "",
            "value": "<p><strong>Prerequisites</strong> @Compendium[pf2e.spells-srd.8RWfKConLYFZpQ9X]{Wild Shape}; @Compendium[pf2e.spells-srd.5c692cCcTDXjSEzk]{Dragon Form}, @Compendium[pf2e.spells-srd.1K6AYGisvo9gqdhs]{Elemental Form}, @Compendium[pf2e.spells-srd.zCcfPS4y5SrZzU2x]{Plant Form}, or @Compendium[pf2e.spells-srd.NzXpEzcZAjuDTZjK]{Aerial Form}</p>\n<p><strong>Trigger</strong> varies</p>\n<hr>\n<p>You transform reflexively when in danger. You cast @Compendium[pf2e.spells-srd.8RWfKConLYFZpQ9X]{Wild Shape}&nbsp;to transform into one form granted by one of the prerequisite feats you have, depending on the trigger. Your form's resistances and weaknesses apply against the triggering damage.</p>\n<hr>\n<p><strong>Trigger</strong> You fall 10 feet or more</p>\n<p><strong>Effect</strong> Choose a form from @Compendium[pf2e.spells-srd.NzXpEzcZAjuDTZjK]{Aerial Form}.</p>\n<hr>\n<p><strong>Trigger</strong> You take acid, cold, electricity, fire, or poison damage</p>\n<p><strong>Effect</strong> Choose a form from @Compendium[pf2e.spells-srd.5c692cCcTDXjSEzk]{Dragon Form} that resists the triggering damage.</p>\n<hr>\n<p><strong>Trigger</strong> You take fire damage</p>\n<p><strong>Effect</strong> Choose a fire elemental form from @Compendium[pf2e.spells-srd.1K6AYGisvo9gqdhs]{Elemental Form}.</p>\n<hr>\n<p><strong>Trigger</strong> You take poison damage</p>\n<p><strong>Effect</strong> Choose a form from @Compendium[pf2e.spells-srd.zCcfPS4y5SrZzU2x]{Plant Form}.</p>"
        },
        "featType": {
            "value": "class"
        },
        "level": {
            "value": "14"
        },
        "prerequisites": {
            "value": "Wild Shape; Dragon Shape, Elemental Shape, Plant Shape, or Soaring Shape"
        },
        "rarity": {
            "value": "common"
        },
        "rules": [],
        "source": {
            "value": ""
        },
        "traits": {
            "rarity": {
                "value": "common"
            },
            "value": [
                "druid"
            ]
        },
        "usage": {
            "value": ""
        }
    },
    "flags": {},
    "img": "systems/pf2e/icons/features/feats/feats.jpg",
    "name": "Reactive Transformation",
    "permission": {
        "default": 0
    },
    "type": "feat"
}
