{
    "_id": "9E1FLGp4CNBEwiZE",
    "data": {
        "actionCategory": {
            "value": ""
        },
        "actionType": {
            "value": "passive"
        },
        "actions": {
            "value": ""
        },
        "description": {
            "chat": "",
            "unidentified": "",
            "value": "<div><strong>Archetype</strong> @Compendium[pf2e.archetypes.Lr108TWazbuxxUzP]{Zephyr Guard}</div>\n<div><strong>Prerequisites</strong> @Compendium[pf2e.feats-srd.UyyrFtPWOo0qvXOv]{Zephyr Guard Dedication}, trained in Athletics</div>\n<hr>\n<p>When you succeed, but don't critically succeed, at a check to Disarm a creature, your circumstance bonus to further checks to Disarm that creature is +4 instead of +2. Other creatures gain only the normal bonus.</p>\n<p>When you critically succeed at a Disarm check, you can immediately Demoralize your target as a reaction.</p>"
        },
        "featType": {
            "value": "archetype"
        },
        "level": {
            "value": "6"
        },
        "prerequisites": {
            "value": "Zephyr Guard Dedication, trained in Athletics"
        },
        "rarity": {
            "value": "common"
        },
        "rules": [],
        "source": {
            "value": ""
        },
        "traits": {
            "custom": "",
            "rarity": {
                "value": "common"
            },
            "value": [
                "archetype"
            ]
        },
        "usage": {
            "value": "held-in-one-hand"
        }
    },
    "flags": {},
    "img": "systems/pf2e/icons/features/feats/feats.jpg",
    "name": "Relentless Disarm",
    "permission": {
        "default": 0
    },
    "type": "feat"
}
