{
    "_id": "j01dM0ZAC7KzShx0",
    "data": {
        "actionCategory": {
            "value": ""
        },
        "actionType": {
            "value": "passive"
        },
        "actions": {
            "value": ""
        },
        "description": {
            "chat": "",
            "unidentified": "",
            "value": "<p>Your patron grants you the power to summon other creatures to aid you.</p>\n<p>Choose one <em>summon</em> spell (such as @Compendium[pf2e.spells-srd.4YnON9JHYqtLzccu]{Summon Animal}, @Compendium[pf2e.spells-srd.lKcsmeOrgHtK4xQa]{Summon Construct}, and so forth) that appears on the spell list of your spellcasting tradition. You can spend 10 minutes in communion with your familiar to replace one spell you've prepared in one of your witch spell slots with the spell you chose, heightened to the same level.</p>\n<p>The spell you replaced must be of at least the <em>summon</em> spell's minimum spell level.</p>"
        },
        "featType": {
            "value": "class"
        },
        "level": {
            "value": "4"
        },
        "prerequisites": {
            "value": ""
        },
        "rarity": {
            "value": "common"
        },
        "rules": [],
        "source": {
            "value": ""
        },
        "traits": {
            "rarity": {
                "value": "common"
            },
            "value": [
                "witch"
            ]
        },
        "usage": {
            "value": ""
        }
    },
    "flags": {},
    "img": "systems/pf2e/icons/features/feats/feats.jpg",
    "name": "Rites Of Convocation",
    "permission": {
        "default": 0
    },
    "type": "feat"
}
