{
    "_id": "elbj75qsUerbM725",
    "data": {
        "actionCategory": {
            "value": ""
        },
        "actionType": {
            "value": "passive"
        },
        "actions": {
            "value": ""
        },
        "description": {
            "chat": "",
            "unidentified": "",
            "value": "<p><strong>Prerequisites </strong>@Compendium[pf2e.feats-srd.qMa2fIP2nqrFzHrq]{Scout Dedication}</p>\n<hr>\n<p>You move faster, especially when traveling, allowing you to scout ahead and report back without slowing your allies. You gain a +10-foot status bonus to your Speed. When calculating your travel speed, this increases to a +20-foot status bonus.</p>"
        },
        "featType": {
            "value": "archetype"
        },
        "level": {
            "value": "6"
        },
        "prerequisites": {
            "value": "Scout Dedication"
        },
        "rarity": {
            "value": "common"
        },
        "rules": [],
        "source": {
            "value": ""
        },
        "traits": {
            "rarity": {
                "value": "common"
            },
            "value": [
                "archetype"
            ]
        },
        "usage": {
            "value": ""
        }
    },
    "flags": {},
    "img": "systems/pf2e/icons/features/feats/feats.jpg",
    "name": "Scout's Speed",
    "permission": {
        "default": 0
    },
    "type": "feat"
}
