{
    "_id": "d022Gp8PjS4Q0ZAC",
    "data": {
        "actionCategory": {
            "value": ""
        },
        "actionType": {
            "value": "passive"
        },
        "actions": {
            "value": ""
        },
        "description": {
            "chat": "",
            "unidentified": "",
            "value": "<p><strong>Prerequisites </strong><a class=\"entity-link\" data-pack=\"pf2e.feats-srd\" data-id=\"7qBuzHY8kEG8SdEP\" draggable=\"true\"><i class=\"fas fa-suitcase\"></i> Cat's Luck</a></p>\n<hr>\n<p>When you use Cat's Luck to reroll a Reflex saving throw, any creatures you choose within 10 feet who also just failed a Reflex saving throw against the same effect (such as a single spell) can also reroll their saving throws and use the better result.</p>"
        },
        "featType": {
            "value": "ancestry"
        },
        "level": {
            "value": "9"
        },
        "prerequisites": {
            "value": "Cat's Luck"
        },
        "rarity": {
            "value": "common"
        },
        "rules": [],
        "source": {
            "value": ""
        },
        "traits": {
            "rarity": {
                "value": "common"
            },
            "value": [
                "catfolk"
            ]
        },
        "usage": {
            "value": ""
        }
    },
    "flags": {},
    "img": "systems/pf2e/icons/features/feats/feats.jpg",
    "name": "Shared Luck (Catfolk)",
    "permission": {
        "default": 0
    },
    "type": "feat"
}
