{
    "_id": "s0OqtQOeYOGkBMYG",
    "data": {
        "actionCategory": {
            "value": ""
        },
        "actionType": {
            "value": "passive"
        },
        "actions": {
            "value": ""
        },
        "description": {
            "chat": "",
            "unidentified": "",
            "value": "<p><span id=\"ctl00_MainContent_DetailedOutput\"><strong>Prerequisites</strong> Loyal Empath<br></span></p>\n<hr>\n<p>Your presence alone is enough to provide your allies with emotional support. You can use the <a class=\"entity-link\" data-pack=\"pf2e.actionspf2e\" data-id=\"HCl3pzVefiv9ZKQW\" draggable=\"true\"><i class=\"fas fa-suitcase\"></i> Aid</a> reaction to grant a bonus to another creature's Will saving throw even when you haven't prepared to help.</p>"
        },
        "featType": {
            "value": "ancestry"
        },
        "level": {
            "value": "13"
        },
        "prerequisites": {
            "value": "Loyal Empath"
        },
        "rarity": {
            "value": "common"
        },
        "rules": [],
        "source": {
            "value": ""
        },
        "traits": {
            "custom": "",
            "rarity": {
                "value": "common"
            },
            "value": [
                "shoony"
            ]
        },
        "usage": {
            "value": "held-in-one-hand"
        }
    },
    "flags": {},
    "img": "systems/pf2e/icons/features/feats/feats.jpg",
    "name": "Steadfast Ally",
    "permission": {
        "default": 0
    },
    "type": "feat"
}
