{
    "_id": "X6tVQ5S7H7GuCZux",
    "data": {
        "actionCategory": {
            "value": ""
        },
        "actionType": {
            "value": "passive"
        },
        "actions": {
            "value": ""
        },
        "description": {
            "chat": "",
            "unidentified": "",
            "value": "<p><strong>Prerequisites </strong>@Compendium[pf2e.feats-srd.AmFv3ClkAVRowHLI]{Tengu Weapon Familiarity}</p>\n<hr>\n<p>You've learned techniques for using blades and other tengu weapons. Whenever you critically hit using one of the weapons from your Tengu Weapon Familiarity, you apply the weapon's critical specialization effect.&nbsp;</p>"
        },
        "featType": {
            "value": "ancestry"
        },
        "level": {
            "value": "5"
        },
        "prerequisites": {
            "value": "Tengu Weapon Familiarity"
        },
        "rarity": {
            "value": "common"
        },
        "rules": [],
        "source": {
            "value": ""
        },
        "traits": {
            "rarity": {
                "value": "common"
            },
            "value": [
                "tengu"
            ]
        },
        "usage": {
            "value": ""
        }
    },
    "flags": {},
    "img": "systems/pf2e/icons/features/feats/feats.jpg",
    "name": "Tengu Weapon Study",
    "permission": {
        "default": 0
    },
    "type": "feat"
}
