{
    "_id": "eoDDjIGAA67Z7rQt",
    "data": {
        "actionCategory": {
            "value": ""
        },
        "actionType": {
            "value": "action"
        },
        "actions": {
            "value": "2"
        },
        "description": {
            "chat": "",
            "unidentified": "",
            "value": "<p><strong>Prerequisites </strong>trained in Stealth</p>\n<hr>\n<p>You capitalize on the distraction provided by an ally. You @Compendium[pf2e.actionspf2e.VMozDqMMuK5kpoX4]{Sneak} up to a foe adjacent to one of your allies. You can roll against the foe you're Sneaking up on, even if it's currently observing you, as though you were hidden. You take a –2 penalty on your Stealth check.</p>\n<p>If your Stealth check against the chosen foe succeeds, you can make a melee @Compendium[pf2e.actionspf2e.VjxZFuUXrCU94MWR]{Strike} against that foe at the end of your Sneak.</p>"
        },
        "featType": {
            "value": "class"
        },
        "level": {
            "value": "2"
        },
        "prerequisites": {
            "value": "trained in Stealth"
        },
        "rarity": {
            "value": "common"
        },
        "rules": [],
        "source": {
            "value": ""
        },
        "traits": {
            "rarity": {
                "value": "common"
            },
            "value": [
                "rogue"
            ]
        },
        "usage": {
            "value": ""
        }
    },
    "flags": {},
    "img": "systems/pf2e/icons/features/feats/feats.jpg",
    "name": "Underhanded Assault",
    "permission": {
        "default": 0
    },
    "type": "feat"
}
