{
    "_id": "zZOycr00XDVTKuXa",
    "data": {
        "actionCategory": {
            "value": ""
        },
        "actionType": {
            "value": "passive"
        },
        "actions": {
            "value": ""
        },
        "description": {
            "chat": "",
            "unidentified": "",
            "value": "<p><strong>Prerequisites&nbsp; </strong><a class=\"entity-link\" data-pack=\"pf2e.feats-srd\" data-id=\"PlhPpdwIV0rIAJ8K\" draggable=\"true\"><i class=\"fas fa-suitcase\"></i> Orc Ferocity</a></p>\n<hr>\n<p>You resist death's clutches with supernatural vigor. When you use Orc Ferocity, you gain temporary Hit Points equal to your level.</p>"
        },
        "featType": {
            "value": "ancestry"
        },
        "level": {
            "value": "9"
        },
        "prerequisites": {
            "value": "Orc Ferocity"
        },
        "rarity": {
            "value": "common"
        },
        "rules": [],
        "source": {
            "value": ""
        },
        "traits": {
            "rarity": {
                "value": "common"
            },
            "value": [
                "orc"
            ]
        },
        "usage": {
            "value": ""
        }
    },
    "flags": {},
    "img": "systems/pf2e/icons/features/feats/feats.jpg",
    "name": "Undying Ferocity",
    "permission": {
        "default": 0
    },
    "type": "feat"
}
