{
    "_id": "cppQZwnuoXqX8mgF",
    "data": {
        "actionCategory": {
            "value": ""
        },
        "actionType": {
            "value": "passive"
        },
        "actions": {
            "value": ""
        },
        "description": {
            "chat": "",
            "unidentified": "",
            "value": "<p><strong>Prerequisites</strong> @Compendium[pf2e.feats-srd.BASCKOPvNGgoHGid]{Achaekek's Grip}, @Compendium[pf2e.feats-srd.bzKBUK6CH8tuLCfo]{Advanced Red Mantis Magic}</p>\n<hr>\n<p>To resurrect a creature you've slain, a spellcaster must counteract your influence on its death. The DC of this check is equal to your class DC or spell DC, whichever is higher.</p>\n<p>In addition, add two 5th-level spells to your Red Mantis assassin spellbook—both spells must be chosen from the following options:</p>\n<ul>\n<li>@Compendium[pf2e.spells-srd.YvXKGlHOt7mdW2jZ]{Death Ward},</li>\n<li>@Compendium[pf2e.spells-srd.scTRIrTfXquVYHGw]{Drop Dead},</li>\n<li>@Compendium[pf2e.spells-srd.RCbLd7dfquHnuvrZ]{False Vision},</li>\n<li>@Compendium[pf2e.spells-srd.U58aQWJ47VrI36yP]{Hallucination},</li>\n<li>@Compendium[pf2e.spells-srd.Ucf8eynbZMfUucjE]{Illusory Scene},</li>\n<li>@Compendium[pf2e.spells-srd.9BnhadUO8FMLmeZ3]{Mind Probe}, or</li>\n<li>@Compendium[pf2e.spells-srd.R9xqCBblkS5KE4y7]{Sending}.</li>\n</ul>\n<p>You gain a 5th-level spell slot that you can use to prepare a spell from your Red Mantis assassin spellbook.</p>"
        },
        "featType": {
            "value": "archetype"
        },
        "level": {
            "value": "12"
        },
        "prerequisites": {
            "value": ""
        },
        "rarity": {
            "value": "common"
        },
        "rules": [],
        "source": {
            "value": ""
        },
        "traits": {
            "custom": "",
            "rarity": {
                "value": "rare"
            },
            "selected": {
                "archetype": "Archetype"
            },
            "value": [
                "archetype"
            ]
        },
        "usage": {
            "value": "held-in-one-hand"
        }
    },
    "flags": {},
    "img": "systems/pf2e/icons/features/feats/feats.jpg",
    "name": "Vernai Training",
    "permission": {
        "default": 0
    },
    "type": "feat"
}
