{
    "_id": "UyyrFtPWOo0qvXOv",
    "data": {
        "actionCategory": {
            "value": ""
        },
        "actionType": {
            "value": "passive"
        },
        "actions": {
            "value": ""
        },
        "description": {
            "chat": "",
            "unidentified": "",
            "value": "<p><strong>Archetype </strong>@Compendium[pf2e.archetypes.Lr108TWazbuxxUzP]{Zephyr Guard}</p>\n<hr>\n<p>As a Zephyr Guard, you're always vigilant against crime and threats to the city's safety. You gain a +1 circumstance bonus to Perception checks against attempts to Palm an Object, Steal, or Conceal an Object (including you're Seeking concealed objects). You become trained in Society and Katapesh Lore; if you were already trained, you become an expert instead.</p>\n<p><strong>Special</strong> You can't select another dedication feat until you have gained two other feats from the Zephyr Guard archetype.</p>"
        },
        "featType": {
            "value": "archetype"
        },
        "level": {
            "value": "2"
        },
        "prerequisites": {
            "value": ""
        },
        "rarity": {
            "value": "common"
        },
        "rules": [],
        "source": {
            "value": ""
        },
        "traits": {
            "custom": "",
            "rarity": {
                "value": "uncommon"
            },
            "value": [
                "archetype",
                "dedication"
            ]
        },
        "usage": {
            "value": "held-in-one-hand"
        }
    },
    "flags": {},
    "img": "systems/pf2e/icons/features/feats/feats.jpg",
    "name": "Zephyr Guard Dedication",
    "permission": {
        "default": 0
    },
    "type": "feat"
}
