{
    "_id": "VmqdVWCb8zAUCW8S",
    "data": {
        "ability": {
            "value": ""
        },
        "area": {
            "value": ""
        },
        "areasize": {
            "value": ""
        },
        "components": {
            "value": "somatic, verbal"
        },
        "cost": {
            "value": ""
        },
        "damage": {
            "applyMod": false,
            "value": "9d6"
        },
        "damageType": {
            "value": "mental"
        },
        "description": {
            "chat": "",
            "unidentified": "",
            "value": "<p>You reveal a glimpse of the impossible conflicts between the<br>divine anathema behind your curse, forcing you to reckon<br>with another’s conflicts as well. You and the target each take<br>[[/r 9d6 #mental]] mental damage with a basic Will save, and the target is @Compendium[pf2e.conditionspf2e.dfCMdR4wnpbYNTix]{Stunned} 1 if it critically fails its save. You get a degree of success one better than you rolled for your saving throw.</p>\n<hr>\n<p><strong>Heightened (+1)</strong> The damage increases by [[/r 3d6 #mental]].</p>"
        },
        "duration": {
            "value": ""
        },
        "level": {
            "value": 4
        },
        "location": {
            "value": ""
        },
        "materials": {
            "value": ""
        },
        "prepared": {
            "value": ""
        },
        "primarycheck": {
            "value": ""
        },
        "range": {
            "value": "30 feet"
        },
        "rarity": {
            "value": "common"
        },
        "rules": [],
        "save": {
            "basic": "basic",
            "value": "will"
        },
        "scaling": {
            "formula": "3d6",
            "mode": "level1"
        },
        "school": {
            "value": "evo"
        },
        "secondarycasters": {
            "value": ""
        },
        "secondarycheck": {
            "value": ""
        },
        "source": {
            "value": ""
        },
        "spellCategorie": {
            "value": "focus"
        },
        "spellCategory": {
            "value": ""
        },
        "spellType": {
            "value": "save"
        },
        "sustained": {
            "value": false
        },
        "target": {
            "value": "1 creature other than you"
        },
        "time": {
            "value": "2"
        },
        "traditions": {
            "value": []
        },
        "traits": {
            "custom": "Cursebound",
            "rarity": {
                "value": "uncommon"
            },
            "value": [
                "evocation",
                "mental",
                "oracle",
                "custom"
            ]
        },
        "usage": {
            "value": "held-in-one-hand"
        }
    },
    "effects": [],
    "flags": {},
    "img": "systems/pf2e/icons/spells/debilitating-dichotomy.jpg",
    "name": "Debilitating Dichotomy",
    "permission": {
        "default": 0
    },
    "type": "spell"
}
