{
    "_id": "MLdMUOdwSKegOGlo",
    "data": {
        "ability": {
            "value": ""
        },
        "area": {
            "value": ""
        },
        "areasize": {
            "value": ""
        },
        "components": {
            "value": "somatic, verbal"
        },
        "cost": {
            "value": ""
        },
        "damage": {
            "applyMod": false,
            "value": ""
        },
        "damageType": {
            "value": ""
        },
        "description": {
            "chat": "",
            "unidentified": "",
            "value": "<p>You curse the target to fail in all avenues of its life that require drive and ambition, as it inadvertently undermines its own goals at every turn. The effect is based on the target’s Will save.</p>\n<hr>\n<p><strong>Critical Success</strong> The target is unaffected.</p>\n<p><strong>Success</strong> For 1 hour, the target rolls twice and uses the lower result on initiative rolls.</p>\n<p><strong>Failure</strong> For 1 day, the target rolls twice and uses the lower result on initiative rolls and any check to determine the success of a downtime activity.</p>\n<p><strong>Critical Failure</strong> As failure, but the duration is unlimited.</p>"
        },
        "duration": {
            "value": "varies"
        },
        "level": {
            "value": 4
        },
        "location": {
            "value": ""
        },
        "materials": {
            "value": ""
        },
        "prepared": {
            "value": false
        },
        "primarycheck": {
            "value": ""
        },
        "range": {
            "value": "120 feet"
        },
        "rarity": {
            "value": "common"
        },
        "rules": [],
        "save": {
            "basic": "",
            "label": "Saving Throw",
            "type": "String",
            "value": "will"
        },
        "scaling": {
            "formula": "",
            "mode": "none"
        },
        "school": {
            "value": "enc"
        },
        "secondarycasters": {
            "value": ""
        },
        "secondarycheck": {
            "value": ""
        },
        "source": {
            "value": ""
        },
        "spellCategorie": {
            "value": "spell"
        },
        "spellCategory": {
            "value": ""
        },
        "spellType": {
            "label": "Spell Type",
            "type": "String",
            "value": "save"
        },
        "sustained": {
            "value": false
        },
        "target": {
            "value": "1 creature"
        },
        "time": {
            "value": "2"
        },
        "traditions": {
            "value": [
                "arcane",
                "divine",
                "occult"
            ]
        },
        "traits": {
            "custom": "",
            "rarity": {
                "value": "common"
            },
            "value": [
                "curse",
                "enchantment",
                "mental",
                "misfortune"
            ]
        },
        "usage": {
            "value": ""
        }
    },
    "effects": [],
    "flags": {},
    "img": "systems/pf2e/icons/spells/dull-ambition.jpg",
    "name": "Dull Ambition",
    "permission": {
        "default": 0
    },
    "type": "spell"
}
