{
    "_id": "nX85Brzax9f650aK",
    "data": {
        "ability": {
            "value": ""
        },
        "area": {
            "value": ""
        },
        "areasize": {
            "value": ""
        },
        "components": {
            "value": "material, somatic"
        },
        "cost": {
            "value": ""
        },
        "damage": {
            "applyMod": false,
            "value": ""
        },
        "damageType": {
            "value": ""
        },
        "description": {
            "chat": "",
            "unidentified": "",
            "value": "<p>You make the object <a class=\"entity-link\" data-pack=\"pf2e.conditionspf2e\" data-id=\"zJxUflt9np0q4yML\" draggable=\"true\"><i class=\"fas fa-book-open\"></i> Invisible</a>. This makes it <a class=\"entity-link\" data-pack=\"pf2e.conditionspf2e\" data-id=\"VRSef5y1LmL2Hkjf\" draggable=\"true\"><i class=\"fas fa-book-open\"></i> Undetected</a> to all creatures, though the creatures can attempt to find the target, making it <a class=\"entity-link\" data-pack=\"pf2e.conditionspf2e\" data-id=\"iU0fEDdBp3rXpTMC\" draggable=\"true\"><i class=\"fas fa-book-open\"></i> Hidden</a> to them instead if they succeed. If the item is used as part of a hostile action, the spell ends after that hostile action is completed. Making a weapon invisible typically doesn’t give any advantage to the attack, except that an invisible thrown weapon or piece of ammunition can be used for an attack without necessarily giving information about the attacker’s hiding place unless the weapon returns to the attacker.</p>\n<hr>\n<p><strong>Heightened (3rd)</strong> The duration is until the next time you make your daily preparations.</p>\n<p><strong>Heightened (7th)</strong> The duration is unlimited.</p>"
        },
        "duration": {
            "value": "1 hour"
        },
        "level": {
            "value": 1
        },
        "location": {
            "value": ""
        },
        "materials": {
            "value": ""
        },
        "prepared": {
            "value": false
        },
        "primarycheck": {
            "value": ""
        },
        "range": {
            "value": "touch"
        },
        "rarity": {
            "value": "common"
        },
        "rules": [],
        "save": {
            "basic": "",
            "value": ""
        },
        "scaling": {
            "formula": "",
            "mode": "none"
        },
        "school": {
            "value": "ill"
        },
        "secondarycasters": {
            "value": ""
        },
        "secondarycheck": {
            "value": ""
        },
        "source": {
            "value": ""
        },
        "spellCategorie": {
            "value": "spell"
        },
        "spellCategory": {
            "value": ""
        },
        "spellType": {
            "value": "utility"
        },
        "sustained": {
            "value": false
        },
        "target": {
            "value": "1 object"
        },
        "time": {
            "value": "2"
        },
        "traditions": {
            "value": [
                "arcane",
                "occult"
            ]
        },
        "traits": {
            "custom": "",
            "rarity": {
                "value": "common"
            },
            "value": [
                "illusion"
            ]
        },
        "usage": {
            "value": ""
        }
    },
    "effects": [],
    "flags": {},
    "img": "systems/pf2e/icons/spells/invisible-item.jpg",
    "name": "Invisible Item",
    "permission": {
        "default": 0
    },
    "type": "spell"
}
