{
    "_id": "kvm68hVtmADiIvN4",
    "data": {
        "ability": {
            "label": "Spellcasting Ability",
            "type": "String",
            "value": ""
        },
        "area": {
            "areaType": "",
            "label": "Area",
            "type": "String",
            "value": null
        },
        "areasize": {
            "value": ""
        },
        "components": {
            "label": "Spell Components",
            "type": "String",
            "value": "verbal"
        },
        "cost": {
            "label": "Cost",
            "type": "String",
            "value": ""
        },
        "damage": {
            "applyMod": false,
            "label": "Spell Damage",
            "type": "String",
            "value": ""
        },
        "damageType": {
            "label": "Damage Type",
            "type": "String",
            "value": ""
        },
        "description": {
            "chat": "",
            "label": "Description",
            "type": "String",
            "unidentified": "",
            "value": "<p>You draw forth a hag's innate jealousy to deny a target its greatest attribute. The target gains an adverse condition depending on its highest ability modifier: Strength (@Compendium[pf2e.conditionspf2e.MIRkyAjyBeXivMa7]{Enfeebled}); Dexterity (@Compendium[pf2e.conditionspf2e.i3OJZU2nk64Df3xm]{Clumsy}); Constitution (@Compendium[pf2e.conditionspf2e.4D2KBtexWXa6oUMR]{Drained}); or Intelligence, Wisdom, or Charisma (@Compendium[pf2e.conditionspf2e.e1XGnhKNSQIm5IXg]{Stupefied}). On a tie, the creature decides which of the conditions associated with the tied ability modifiers to take. The target must attempt a Will save.At the start of each of your turns, the target can attempt another Will save, ending the effect on a success.</p>\r<p>\n<hr><b>Success</b>  The target is unaffected.</p>\r<p>\n<b>Failure</b>  The condition's value is 1.</p>\r<p>\n<b>Critical Failure</b>  The condition's value is 2.</p>"
        },
        "duration": {
            "label": "Duration",
            "type": "String",
            "value": "up to 1 minute"
        },
        "level": {
            "label": "Spell Level",
            "type": "Number",
            "value": 1
        },
        "location": {
            "label": "Spellcasting Entry Location",
            "type": "String",
            "value": ""
        },
        "materials": {
            "label": "Materials",
            "type": "String",
            "value": ""
        },
        "prepared": {
            "label": "Prepared Spell",
            "type": "String",
            "value": ""
        },
        "primarycheck": {
            "value": ""
        },
        "range": {
            "label": "Range",
            "type": "String",
            "value": "30 feet"
        },
        "rarity": {
            "value": "common"
        },
        "rules": [],
        "save": {
            "basic": "",
            "label": "Saving Throw",
            "type": "String",
            "value": ""
        },
        "scaling": {
            "formula": "",
            "mode": "none"
        },
        "school": {
            "label": "Spell School",
            "type": "String",
            "value": "nec"
        },
        "secondarycasters": {
            "value": ""
        },
        "secondarycheck": {
            "value": ""
        },
        "source": {
            "label": "Source",
            "type": "String",
            "value": "https://2e.aonprd.com/Spells.aspx?ID=515"
        },
        "spellCategorie": {
            "value": "focus"
        },
        "spellCategory": {
            "value": ""
        },
        "spellType": {
            "label": "Spell Type",
            "type": "String",
            "value": "save"
        },
        "sustained": {
            "label": "Can be Sustained",
            "type": "Boolean",
            "value": false
        },
        "target": {
            "label": "Target",
            "type": "String",
            "value": "1 creature"
        },
        "time": {
            "label": "Casting Time",
            "type": "String",
            "value": "1"
        },
        "traditions": {
            "label": "Spell Traditions",
            "type": "String",
            "value": [
                "focus"
            ]
        },
        "traits": {
            "label": "Spell Traits",
            "rarity": {
                "value": "uncommon"
            },
            "type": "String",
            "value": [
                "curse",
                "necromancy",
                "sorcerer"
            ]
        },
        "usage": {
            "value": "held-in-one-hand"
        }
    },
    "effects": [],
    "flags": {},
    "img": "systems/pf2e/icons/spells/jealous-hex.jpg",
    "name": "Jealous Hex",
    "permission": {
        "default": 0
    },
    "type": "spell"
}
