{
    "_id": "YDMOqndvYFu3OjA6",
    "data": {
        "ability": {
            "value": ""
        },
        "area": {
            "value": ""
        },
        "areasize": {
            "value": ""
        },
        "components": {
            "value": ""
        },
        "cost": {
            "value": ""
        },
        "damage": {
            "applyMod": false,
            "value": ""
        },
        "damageType": {
            "value": ""
        },
        "description": {
            "chat": "",
            "unidentified": "",
            "value": "<p>Drawing from deep wells of spiritual power, you take on a<br>special ki form. In your ki form, your hair, feathers, skin, or<br>scales change color and begin to glow. In this form you gain a @Compendium[pf2e.actionspf2e.cS9nfDRGD83bNU1p]{Fly} Speed equal to your land Speed. Choose force, lawful (only if you are lawful), negative, or positive damage. All your @Compendium[pf2e.actionspf2e.VjxZFuUXrCU94MWR]{Strikes} deal [[/r 1d6]] additional damage of the chosen type. Your entire body is also surrounded by a glowing corona of the same color as your inner ki; this is a light effect. Your corona is a 5-foot emanation that deals [[/r 2d6]] damage of the chosen type to creatures who start their turn within the emanation. If the emanation overlaps with a darkness effect, the corona’s glow attempts to counteract the darkness effect. Regardless of the outcome, the corona can’t attempt to counteract that effect again for 1 day. As a single action, which has the concentrate trait, you can flare your corona out to become a 30-foot emanation.</p>\n<p>In your ki form, your emotions surge to the forefront and it’s difficult to moderate your attacks. Your weapons and unarmed attacks lose the nonlethal trait. You take a –2 status penalty to saves against emotion effects but gain a +2 status bonus to saves against all other mental effects.</p>"
        },
        "duration": {
            "value": "1 Minute"
        },
        "level": {
            "value": 9
        },
        "location": {
            "value": ""
        },
        "materials": {
            "value": ""
        },
        "prepared": {
            "value": ""
        },
        "primarycheck": {
            "value": ""
        },
        "range": {
            "value": ""
        },
        "rarity": {
            "value": "common"
        },
        "rules": [],
        "save": {
            "basic": "",
            "value": ""
        },
        "scaling": {
            "formula": "",
            "mode": "none"
        },
        "school": {
            "value": "trs"
        },
        "secondarycasters": {
            "value": ""
        },
        "secondarycheck": {
            "value": ""
        },
        "source": {
            "value": ""
        },
        "spellCategorie": {
            "value": "focus"
        },
        "spellCategory": {
            "value": ""
        },
        "spellType": {
            "value": "utility"
        },
        "sustained": {
            "value": false
        },
        "target": {
            "value": ""
        },
        "time": {
            "value": "1"
        },
        "traditions": {
            "value": []
        },
        "traits": {
            "custom": "",
            "rarity": {
                "value": "uncommon"
            },
            "value": [
                "monk",
                "polymorph"
            ]
        },
        "usage": {
            "value": "held-in-one-hand"
        }
    },
    "effects": [],
    "flags": {},
    "img": "systems/pf2e/icons/spells/ki-form.jpg",
    "name": "Ki Form",
    "permission": {
        "default": 0
    },
    "type": "spell"
}
