{
    "_id": "9kOI14Jep97TzGO7",
    "data": {
        "ability": {
            "value": ""
        },
        "area": {
            "value": ""
        },
        "areasize": {
            "value": ""
        },
        "components": {
            "value": "somatic, verbal"
        },
        "cost": {
            "value": ""
        },
        "damage": {
            "applyMod": false,
            "value": ""
        },
        "damageType": {
            "value": ""
        },
        "description": {
            "chat": "",
            "unidentified": "",
            "value": "<p dir=\"ltr\">You transcend your physical form, becoming a beacon of healing energy. Your body exudes bright light like a torch. You gain resistance 5 to precision damage and weakness 5 to negative damage, and your unarmed @Compendium[pf2e.actionspf2e.VjxZFuUXrCU94MWR]{Strikes} deal an extra [[/r 1d4 #positive]] positive damage.</p>\n<p dir=\"ltr\">You can touch a living creature with an @Compendium[pf2e.actionspf2e.pvQ5rY2zrtPI614F]{Interact} action to restore [[/r 6d8]] Hit Points to it, and when a creature touches you with an Interact action you can allow it to gain the same healing; either way, the creature becomes temporarily immune to life-giving form’s healing for 1 minute. This is a positive healing effect. You can’t heal yourself with life‑giving form. A creature harmed by positive damage (such as an undead) that touches you or damages you with an unarmed attack or non‑reach melee weapon instead takes [[/r 3d4 #positive]] positive damage, and it doesn’t become temporarily immune. You can @Compendium[pf2e.actionspf2e.AjLSHZSWQ90exdLo]{Dismiss} this spell.</p>\n<hr>\n<p id=\"docs-internal-guid-4ce535bf-7fff-2e90-3d90-10b58a296fd6\" dir=\"ltr\"><strong>Heightened (+1)</strong> Increase the Hit Points restored with an Interact action by [[/r 1d8]], the positive damage by 1, and the resistance and weakness by 1.</p>"
        },
        "duration": {
            "value": "1 minute"
        },
        "level": {
            "value": 6
        },
        "location": {
            "value": ""
        },
        "materials": {
            "value": ""
        },
        "prepared": {
            "value": ""
        },
        "primarycheck": {
            "value": ""
        },
        "range": {
            "value": ""
        },
        "rarity": {
            "value": "common"
        },
        "rules": [],
        "save": {
            "basic": "",
            "value": ""
        },
        "scaling": {
            "formula": "",
            "mode": "none"
        },
        "school": {
            "value": "nec"
        },
        "secondarycasters": {
            "value": ""
        },
        "secondarycheck": {
            "value": ""
        },
        "source": {
            "value": ""
        },
        "spellCategorie": {
            "value": "focus"
        },
        "spellCategory": {
            "value": ""
        },
        "spellType": {
            "value": "utility"
        },
        "sustained": {
            "value": false
        },
        "target": {
            "value": ""
        },
        "time": {
            "value": "2"
        },
        "traditions": {
            "value": []
        },
        "traits": {
            "custom": "",
            "rarity": {
                "value": "uncommon"
            },
            "value": [
                "healing",
                "light",
                "necromancy",
                "oracle",
                "positive"
            ]
        },
        "usage": {
            "value": "held-in-one-hand"
        }
    },
    "effects": [],
    "flags": {},
    "img": "systems/pf2e/icons/spells/life-giving-form.jpg",
    "name": "Life-Giving Form",
    "permission": {
        "default": 0
    },
    "type": "spell"
}
