{
    "_id": "Uqj344bezBq3ESdq",
    "data": {
        "ability": {
            "label": "Spellcasting Ability",
            "type": "String",
            "value": ""
        },
        "area": {
            "areaType": "",
            "label": "Area",
            "type": "String",
            "value": null
        },
        "areasize": {
            "value": ""
        },
        "components": {
            "label": "Spell Components",
            "type": "String",
            "value": "material, somatic, verbal"
        },
        "cost": {
            "label": "Cost",
            "type": "String",
            "value": ""
        },
        "damage": {
            "applyMod": false,
            "label": "Spell Damage",
            "type": "String",
            "value": ""
        },
        "damageType": {
            "label": "Damage Type",
            "type": "String",
            "value": ""
        },
        "description": {
            "chat": "",
            "label": "Description",
            "type": "String",
            "unidentified": "",
            "value": "<p>You send disturbing nightmares to your target. The next time the target falls asleep, it must attempt a Will save. If you know the target only by name and have never met them, the target gets a +4 circumstance bonus to the Will save.</p>\n<hr />\n<p><strong>Critical Success</strong> The target suffers no adverse effects and is temporarily immune for 1 week.</p>\n<p><strong>Success</strong> The target experiences the nightmares but suffers no adverse effects other than unpleasant memories.</p>\n<p><strong>Failure</strong> The target experiences the nightmares and awakens @Compendium[pf2e.conditionspf2e.HL2l2VRSaQHu9lUw]{Fatigued}.</p>\n<p><strong>Critical Failure</strong> The target experiences the nightmares, awakens Fatigued, and is @Compendium[pf2e.conditionspf2e.4D2KBtexWXa6oUMR]{Drained} 2 until it is no longer Fatigued.</p>"
        },
        "duration": {
            "label": "Duration",
            "type": "String",
            "value": "1 day"
        },
        "level": {
            "label": "Spell Level",
            "type": "Number",
            "value": 4
        },
        "location": {
            "label": "Spellcasting Entry Location",
            "type": "String",
            "value": ""
        },
        "materials": {
            "label": "Materials",
            "type": "String",
            "value": ""
        },
        "prepared": {
            "label": "Prepared Spell",
            "type": "String",
            "value": ""
        },
        "primarycheck": {
            "value": ""
        },
        "range": {
            "label": "Range",
            "type": "String",
            "value": "planetary"
        },
        "rarity": {
            "value": "common"
        },
        "rules": [],
        "save": {
            "basic": "",
            "label": "Saving Throw",
            "type": "String",
            "value": "will"
        },
        "scaling": {
            "formula": "",
            "mode": "none"
        },
        "school": {
            "label": "Spell School",
            "type": "String",
            "value": "ill"
        },
        "secondarycasters": {
            "value": ""
        },
        "secondarycheck": {
            "value": ""
        },
        "source": {
            "label": "Source",
            "type": "String",
            "value": "https://2e.aonprd.com/Spells.aspx?ID=208"
        },
        "spellCategorie": {
            "value": "spell"
        },
        "spellCategory": {
            "value": ""
        },
        "spellType": {
            "label": "Spell Type",
            "type": "String",
            "value": "save"
        },
        "sustained": {
            "label": "Can be Sustained",
            "type": "Boolean",
            "value": false
        },
        "target": {
            "label": "Target",
            "type": "String",
            "value": "1 creature you know by name"
        },
        "time": {
            "label": "Casting Time",
            "type": "String",
            "value": "10 minutes"
        },
        "traditions": {
            "label": "Spell Traditions",
            "type": "String",
            "value": [
                "arcane",
                "occult"
            ]
        },
        "traits": {
            "label": "Spell Traits",
            "rarity": {
                "value": "common"
            },
            "type": "String",
            "value": [
                "illusion",
                "mental"
            ]
        },
        "usage": {
            "value": "held-in-one-hand"
        }
    },
    "effects": [],
    "flags": {},
    "img": "systems/pf2e/icons/spells/nightmare.jpg",
    "name": "Nightmare",
    "permission": {
        "default": 0
    },
    "type": "spell"
}
