{
    "_id": "1meVElIu1CEVYWkv",
    "data": {
        "ability": {
            "value": ""
        },
        "area": {
            "value": "10-foot emanation"
        },
        "areasize": {
            "value": ""
        },
        "components": {
            "value": "somatic, verbal"
        },
        "cost": {
            "value": ""
        },
        "damage": {
            "applyMod": false,
            "value": "1d6"
        },
        "damageType": {
            "value": "piercing"
        },
        "description": {
            "chat": "",
            "unidentified": "",
            "value": "<p>You emit a cloud of toxic smoke that temporarily obscures you from sight. Each creature except you in the area when you @Compendium[pf2e.actionspf2e.aBQ8ajvEBByv45yz]{Cast the Spell} takes [[/r 1d6 #poison]] poison damage (basic Fortitude save). A creature that critically fails the saving throw also becomes @Compendium[pf2e.conditionspf2e.fesd1n5eVhpCSS18]{Sickened} 1. All creatures in the area become @Compendium[pf2e.conditionspf2e.DmAIPqOBomZ7H95W]{Concealed}, and all creatures outside the smoke become Concealed to creatures within it. This smoke can be dispersed by a strong wind.</p>\n<hr>\n<p><strong>Heightened (+1)</strong> The damage increases by [[/r 1d6 #poison]].</p>"
        },
        "duration": {
            "value": "1 round"
        },
        "level": {
            "value": 1
        },
        "location": {
            "value": ""
        },
        "materials": {
            "value": ""
        },
        "prepared": {
            "value": false
        },
        "primarycheck": {
            "value": ""
        },
        "range": {
            "value": ""
        },
        "rarity": {
            "value": "common"
        },
        "rules": [],
        "save": {
            "basic": "basic",
            "value": "fortitude"
        },
        "scaling": {
            "formula": "1d6",
            "mode": "level1"
        },
        "school": {
            "value": "evo"
        },
        "secondarycasters": {
            "value": ""
        },
        "secondarycheck": {
            "value": ""
        },
        "source": {
            "value": ""
        },
        "spellCategorie": {
            "value": "spell"
        },
        "spellCategory": {
            "value": ""
        },
        "spellType": {
            "value": "attack"
        },
        "sustained": {
            "value": false
        },
        "target": {
            "value": ""
        },
        "time": {
            "value": "2"
        },
        "traditions": {
            "value": [
                "arcane",
                "primal"
            ]
        },
        "traits": {
            "custom": "",
            "rarity": {
                "value": "common"
            },
            "value": [
                "evocation",
                "poison"
            ]
        },
        "usage": {
            "value": ""
        }
    },
    "effects": [],
    "flags": {},
    "img": "systems/pf2e/icons/spells/noxious-vapors.jpg",
    "name": "Noxious Vapors",
    "permission": {
        "default": 0
    },
    "type": "spell"
}
