{
    "_id": "z4cvqtpkkAYoFpHa",
    "data": {
        "actionCategory": {
            "value": ""
        },
        "actionType": {
            "value": "passive"
        },
        "actions": {
            "value": null
        },
        "description": {
            "chat": "",
            "unidentified": "",
            "value": "<p>Your ancestors were famous trackers, and you carry in your blood that same gift of the hunt. You gain a special sense: imprecise scent with a range of 30 feet. This means you can use your sense of smell to determine the location of a creature, but it remains <a class=\"entity-link\" draggable=\"true\" data-pack=\"pf2e.conditionitems\" data-id=\"iU0fEDdBp3rXpTMC\"> Hidden</a>. In addition, you gain a +2 circumstance bonus to Survival checks to <a class=\"entity-link\" draggable=\"true\" data-pack=\"pf2e.actionspf2e\" data-id=\"EA5vuSgJfiHH7plD\"> Track</a> creatures that you have previously sensed with your scent.</p>"
        },
        "featType": {
            "value": "ancestryfeature"
        },
        "level": {
            "value": "1"
        },
        "prerequisites": {
            "value": null
        },
        "rarity": {
            "value": "common"
        },
        "rules": [],
        "source": {
            "value": ""
        },
        "traits": {
            "custom": "",
            "rarity": {
                "value": "common"
            },
            "value": [
                "shoony"
            ]
        },
        "usage": {
            "value": "held-in-one-hand"
        }
    },
    "effects": [],
    "flags": {},
    "img": "systems/pf2e/icons/features/ancestry/bloodhound-shoony.jpg",
    "name": "Bloodhound Shoony",
    "permission": {
        "default": 0
    },
    "type": "feat"
}
